{
  "resourceType": "Observation",
  "id": "11",
  "meta": {
    "versionId": "1",
    "lastUpdated": "2019-12-19T15:05:18.000+00:00"
  },
  "identifier": [
    {
      "value": "2512489996-urn:oid:1.2.208.176.1.2-00-09-1F-FE-FF-80-1A-33-68532-45.0-56.0-20181009T184052.00"
    }
  ],
  "basedOn": [
    {
      "type": "CarePlan",
      "identifier": {
        "system": "urn:ietf:rfc:3986",
        "value": "de67e5c1-494a-41b9-924d-4c613b076a73"
      }
    }
  ],
  "status": "final",
  "code": {
    "coding": [
      {
        "system": "urn:iso:std:iso:11073:10101",
        "code": "68532",
        "display": "MDC_ATTR_GPS_COORDINATES"
      }
    ],
    "text": "MDC_ATTR_GPS_COORDINATES: GPS Coordinates"
  },
  "subject": {
    "type": "Patient",
    "identifier": {
      "system": "urn:oid:1.2.208.176.1.2",
      "value": "2512489996"
    }
  },
  "effectiveDateTime": "2018-10-09T20:40:52+02:00",
  "performer": [
    {
      "type": "Patient",
      "identifier": {
        "system": "urn:oid:1.2.208.176.1.2",
        "value": "2512489996"
      }
    }
  ],
  "component": [
    {
      "code": {
        "coding": [
          {
            "system": "urn:iso:std:iso:11073:10101",
            "code": "8454250",
            "display": "MDC_HF_LATITUDE"
          }
        ],
        "text": "MDC_HF_LATITUDE: Latitude"
      },
      "valueQuantity": {
        "value": 45,
        "unit": "angle degree",
        "system": "http://unitsofmeasure.org",
        "code": "deg"
      }
    },
    {
      "code": {
        "coding": [
          {
            "system": "urn:iso:std:iso:11073:10101",
            "code": "8454251",
            "display": "MDC_HF_LONGITUDE"
          }
        ],
        "text": "MDC_HF_LONGITUDE: Longitude"
      },
      "valueQuantity": {
        "value": 56,
        "unit": "angle degree",
        "system": "http://unitsofmeasure.org",
        "code": "deg"
      }
    },
    {
      "code": {
        "coding": [
          {
            "system": "urn:iso:std:iso:11073:10101",
            "code": "68536",
            "display": "MDC_ATTR_GPS_LAT_ACCY"
          }
        ],
        "text": "MDC_ATTR_GPS_LAT_ACCY: Latitude Accuracy"
      },
      "valueQuantity": {
        "value": 2,
        "unit": "angle degree",
        "system": "http://unitsofmeasure.org",
        "code": "deg"
      }
    }
  ],
  "device": {
    "identifier": {
      "system": "urn:oid:1.2.840.10004.1.1.1.0.0.1.0.0.1.2680",
      "value": "00-09-1F-FE-FF-80-1A-33"
    }
  },
  "extension": [
    {
      "url": "https://issuetracker4s.atlassian.net/wiki/spaces/FHIRReg/pages/114262030/Observation+dataEntryMethod",
      "valueCoding": {
        "code": "automatic",
        "system": "https://issuetracker4s.atlassian.net/wiki/spaces/FHIRReg/pages/100728837/ObservationDefinition+dataEntryMethod+coding+system",
        "display": "Automatisk måling"
      }
    }
  ]
}