{
    "resourceType": "Observation",
    "id": "7",
    "meta": {
      "versionId": "1",
      "lastUpdated": "2019-12-19T15:05:18.000+00:00"
    },
    "identifier": [
      {
        "value": "2512489996-urn:oid:1.2.208.176.1.2-00-09-1F-FE-FF-80-1A-33-8454258-44.0-20181009T183538.00"
      }
    ],
    "basedOn": [
      {
        "identifier": {
          "system": "urn:ietf:rfc:3986",
          "value": "de67e5c1-494a-41b9-924d-4c613b076a73"
        },
        "type": "CarePlan"
      }
    ],
    "status": "final",
    "code": {
      "coding": [
        {
          "system": "urn:iso:std:iso:11073:10101",
          "code": "8454258",
          "display": "MDC_HF_HR"
        }
      ],
      "text": "MDC_HF_HR: Heart Rate"
    },
    "subject": {
      "reference": "urn:uuid:2512489996",
      "type": "Patient"
    },
    "effectiveDateTime": "2018-10-09T20:35:38+02:00",
    "performer": [
      {
        "reference": "urn:uuid:2512489996",
        "type": "Patient"
      }
    ],
    "valueQuantity": {
      "value": 44,
      "unit": "beats/minute",
      "system": "http://unitsofmeasure.org",
      "code": "{beats}/min"
    },
    "device": {
      "identifier": {
        "system": "urn:oid:1.2.840.10004.1.1.1.0.0.1.0.0.1.2680",
        "value": "00-09-1F-FE-FF-80-1A-33"
      }
    },
    "extension": [
      {
        "url": "https://issuetracker4s.atlassian.net/wiki/spaces/FHIRReg/pages/114262030/Observation+dataEntryMethod",
        "valueCoding": {
          "code": "automatic",
          "system": "https://issuetracker4s.atlassian.net/wiki/spaces/FHIRReg/pages/100728837/ObservationDefinition+dataEntryMethod+coding+system",
          "display": "Automatisk måling"
        }
      }
    ]
  }