{
    "resourceType": "Observation",
    "identifier": [
      {
        "system": "urn:ietf:rfc:3986",
        "value": "645266d3-d556-4e5d-9b25-9f10d4c92a4b"
      }
    ],
    "basedOn": [
      {
        "identifier": {
          "system": "urn:ietf:rfc:3986",
          "value": "5e257df3-de53-4350-a116-5368d04b1539"
        }
      }
    ],
    "status": "final",
    "code": {
      "coding": [
        {
          "system": "https://developer.apple.com/documentation/healthkit/hkworkout/1615491-totalenergyburned",
          "code": "workout_total_energy_burned",
          "display": "Workout Total Energy Burned"
        }
      ],
      "text": "WorkoutTotalEnergyBurned"
    },
    "subject": {
      "type": "Patient",
      "identifier": {
        "system": "urn:ietf:rfc:3986",
        "value": "5e257df3-de53-4350-a116-5368d04b1539"
      }
    },
    "effectivePeriod": {
      "start": "2020-06-09T12:00:00+02:00",
      "end": "2020-06-09T13:00:00+02:00"
    },
    "performer": [
      {
        "type": "Patient",
        "identifier": {
          "system": "urn:ietf:rfc:3986",
          "value": "5e257df3-de53-4350-a116-5368d04b1539"
        }
      }
    ],
    "valueQuantity": {
      "value": 24.0,
      "unit": "kilocalorie",
      "system": "http://unitsofmeasure.org",
      "code": "kcal"
    },
    "device": {
      "type": "Device",
      "identifier": {
        "system": "urn:ietf:rfc:3986",
        "value": "00966a29-4b16-409b-907d-5d0a2b8027af"
      }
    },
    "derivedFrom": [
      {
        "identifier": {
          "system": "urn:ietf:rfc:3986",
          "value": "826894a5-3792-496e-901b-f9ff9d7f3d7a"
        }
      }
    ]
  }