{
    "resourceType": "Observation",
    "identifier": [
      {
        "system": "urn:ietf:rfc:3986",
        "value": "826894a5-3792-496e-901b-f9ff9d7f3d7a"
      }
    ],
    "basedOn": [
      {
        "identifier": {
          "system": "urn:ietf:rfc:3986",
          "value": "5e257df3-de53-4350-a116-5368d04b1539"
        }
      }
    ],
    "status": "final",
    "code": {
      "coding": [
        {
          "system": "https://developer.apple.com/documentation/healthkit/data_types",
          "code": "workout",
          "display": "workout"
        }
      ],
      "text": "Workout"
    },
    "subject": {
      "type": "Patient",
      "identifier": {
        "system": "urn:ietf:rfc:3986",
        "value": "5e257df3-de53-4350-a116-5368d04b1539"
      }
    },
    "effectivePeriod": {
      "start": "2020-06-09T12:00:00+02:00",
      "end": "2020-06-09T13:00:00+02:00"
    },
    "performer": [
      {
        "type": "Patient",
        "identifier": {
          "system": "urn:ietf:rfc:3986",
          "value": "5e257df3-de53-4350-a116-5368d04b1539"
        }
      }
    ],
    "valueCodeableConcept": {
      "coding": [
        {
          "system": "https://developer.apple.com/documentation/healthkit/hkworkoutactivitytype",
          "code": "jumpRope"
        }
      ]
    },
    "device": {
      "type": "Device",
      "identifier": {
        "system": "urn:ietf:rfc:3986",
        "value": "00966a29-4b16-409b-907d-5d0a2b8027af"
      }
    },
    "hasMember": [
      {
        "type": "Observation",
        "identifier": {
          "system": "urn:ietf:rfc:3986",
          "value": "d00d9307-185e-40a4-8354-2e4c2db0ec1b"
        }
      },
      {
        "type": "Observation",
        "identifier": {
          "system": "urn:ietf:rfc:3986",
          "value": "11dceb2b-c841-4857-90cf-9ae6c9be9791"
        }
      }
    ]
  }