{
  "resourceType": "DeviceDefinition",
  "meta": {
    "profile": ["https://issuetracker4s.atlassian.net/wiki/spaces/FDM/pages/47448096/FHIR+DeviceDefinition"]
  },
  "type": {
    "coding": [{
      "system": "urn:iso:std:iso:11073:10101",
      "code": "585728"
    }],
    "text": "MDC_DEV_PLACEHOLDER_SPEC_PROFILE_CTG: Cardiotocograph"
  },
  "manufacturerString": "Monica Healthcare",
  "modelNumber": "AN24V1",
  "property": [
    {
      "type": {
        "coding": [{
          "system": "urn:iso:std:iso:11073:10101",
          "code": "8450054"
        }],
        "text": "MDC_CTG_PLACEHOLDER_PATIENT_STATUS: Patient status"
      },
      "valueCode": [{
        "coding": [{
          "system": "urn:iso:std:iso:11073:10101",
          "code": "8450055"
        }],
        "text": "MDC_CTG_PLACEHOLDER_PATIENT_STATUS_ANTENATAL: Antenatal"
      }] 
    }
  ]
}
