{
  "resourceType": "Questionnaire",
  "url": "urn:uuid:770bc0d0-14a5-430e-a909-321e72f2f2b4",
  "identifier": [{
    "system": "urn:ietf:rfc:3986",
    "value": "770bc0d0-14a5-430e-a909-321e72f2f2b4"
  }],
  "version": "5",  
  "meta": {
    "profile": [
      "https://issuetracker4s.atlassian.net/wiki/spaces/FHIRReg/pages/116064285/Questionnaire+MeasurementsRequests"
    ]
  },
  "language": "da-DK",
  "title": "Spørgsmål om vægt og blodtryk",
  "status": "active",
  "date": "2018-09-30T10:15:03+02:00",
  "extension": [
    {
      "url": "https://issuetracker4s.atlassian.net/wiki/spaces/FHIRReg/pages/100565032/Questionnaire+managingOrganization+extension",
      "valueReference": {
        "identifier": {
          "system": "1.2.208.176.1.1",
          "value": "238881000016000"
        },
        "type": "Organization"
      }
    }
  ],
  "subjectType": [
    "Patient"
  ],
  "copyright": "© OUH 2018 - alle rettigheder forbeholdes",
  "contained": [
    {
      "resourceType": "DeviceDefinition",
      "id": "devdef1",
      "meta": {
        "profile": ["https://issuetracker4s.atlassian.net/wiki/spaces/FDM/pages/47448096/FHIR+DeviceDefinition"]
      },
      "type": { 
        "coding": [{
          "system": "urn:iso:std:iso:11073:10101",
          "code": "528399"
        }],
        "text": "MDC_DEV_SPEC_PROFILE_SCALE: Weight Scale"
      }
    },
    {
      "resourceType": "DeviceDefinition",
      "id": "devdef2",
      "meta": {
        "profile": ["https://issuetracker4s.atlassian.net/wiki/spaces/FDM/pages/47448096/FHIR+DeviceDefinition"]
      },
      "type": {
        "coding": [{
          "system": "urn:iso:std:iso:11073:10101",
          "code": "528391"
        }],
        "text": "MDC_DEV_SPEC_PROFILE_BP: Blood Pressure Meter"
      }
    },
    {
      "resourceType": "ObservationDefinition",
      "id": "obsdef1",
      "identifier": [{
        "system": "urn:ietf:rfc:3986",
        "value": "aaea9b52-3084-4cdc-872d-5928695d67a6"
      }],
      "meta": {
        "profile": ["https://issuetracker4s.atlassian.net/wiki/spaces/FDM/pages/47382723/FHIR+ObservationDefinition"]
      },
      "extension": [
        {
          "url": "https://issuetracker4s.atlassian.net/wiki/spaces/FHIRReg/pages/100466693/ObservationDefinition+dataEntryMethod+extension",
          "valueCoding": {
            "code": "both",
            "system": "https://issuetracker4s.atlassian.net/wiki/spaces/FHIRReg/pages/100728837/ObservationDefinition+dataEntryMethod+coding+system",
            "display": "Enhver metode"
          }
        },
        {
          "url": "https://issuetracker4s.atlassian.net/wiki/spaces/FHIRReg/pages/321945601/ObservationDefinition+observationProfile",
          "valueCanonical": "http://hl7.org/fhir/StructureDefinition/bodyweight"
        },
        {
          "url": "https://issuetracker4s.atlassian.net/wiki/spaces/FHIRReg/pages/186744833/ObservationDefinition+url+extension",
          "valueUri": "canonical://uuid/ObservationDefinition/aaea9b52-3084-4cdc-872d-5928695d67a6"
        },
        {
          "url": "https://issuetracker4s.atlassian.net/wiki/spaces/FHIRReg/pages/197066753/ObservationDefinition+version+extension",
          "valueString": "1.0.0"
        }
      ],
      "code": {
        "coding": [
          {
	    "system" : "urn:oid:1.2.208.176.2.1",
	    "code" : "NPU03804",
	    "display" : "Legeme masse; Pt"
	  },{
            "system": "urn:iso:std:iso:11073:10101",
            "code": "188736",
            "display": "MDC_MASS_BODY_ACTUAL"
          },{
            "system": "http://loinc.org",
            "code": "29463-7",
            "display": "Body weight"
          }
        ],
        "text": "MDC_MASS_BODY_ACTUAL: Body weight"
      },
      "category": [{
        "coding": [{
          "system": "http://terminology.hl7.org/CodeSystem/observation-category",
          "code": "vital-signs"
        }]
      }],
      "permittedDataType": ["Quantity"],
      "quantitativeDetails": {
        "unit": {
          "system": "http://unitsofmeasure.org",
          "code": "kg",
          "display": "kg"
        }
      }
    },
    {
      "resourceType": "ObservationDefinition",
      "id": "obsdef2",
      "identifier": [{
        "system": "urn:ietf:rfc:3986",
        "value": "271e0cfc-666f-41f5-b5f1-2ed8f6b6ccc6"
      }],
      "meta": {
        "profile": ["https://issuetracker4s.atlassian.net/wiki/spaces/FDM/pages/47382723/FHIR+ObservationDefinition"]
      },
      "extension": [
        {
          "url": "https://issuetracker4s.atlassian.net/wiki/spaces/FHIRReg/pages/100466693/ObservationDefinition+dataEntryMethod+extension",
          "valueCoding": {
            "code": "both",
            "system": "https://issuetracker4s.atlassian.net/wiki/spaces/FHIRReg/pages/100728837/ObservationDefinition+dataEntryMethod+coding+system",
            "display": "Enhver metode"
          }
        },
        {
          "url": "https://issuetracker4s.atlassian.net/wiki/spaces/FHIRReg/pages/321945601/ObservationDefinition+observationProfile",
          "valueCanonical": "http://hl7.org/fhir/StructureDefinition/bp"
        },
        {
          "url": "https://issuetracker4s.atlassian.net/wiki/spaces/FHIRReg/pages/324042753/ObservationDefinition+component",
          "extension": [
            {
              "url": "code",
              "valueCodeableConcept":
              {
                "coding": [
                  {
	                "system" : "urn:oid:1.2.208.176.2.1",
	                "code" : "MCS88019",
	                "display" : "Blodtryk hjemme systolisk;Arm"
	              },
	              {
                    "system": "urn:iso:std:iso:11073:10101",
                    "code": "150021",
                    "display": "MDC_PRESS_BLD_NONINV_SYS"
                  },
                  {
                    "system": "http://loinc.org",
                    "code": "8480-6",
                    "display": "Systolic blood pressure"
                  }
                ],
                "text": "MDC_PRESS_BLD_NONINV_SYS: Systolic blood pressure"
              }      
            },
            {
              "url": "permittedDataType",
              "valueCode": "Quantity"
            },
            {
              "url": "quantitativeDetails",
              "extension": [
                {
                  "url": "unit",
                  "valueCodeableConcept": {
                    "unit": {
                      "coding": [{
                        "system": "http://unitsofmeasure.org",
                        "code": "mm[Hg]",
                        "display": "mmHg"
                      }],
                      "text": "mmHg"
                    }
                  }
                }
              ]
            }
          ]
        },{
          "url": "https://issuetracker4s.atlassian.net/wiki/spaces/FHIRReg/pages/324042753/ObservationDefinition+component",
          "extension": [
            {
              "url": "code",
              "valueCodeableConcept": {
                "coding": [
                  {
	            "system" : "urn:oid:1.2.208.176.2.1",
	            "code" : "MCS88020",
	            "display" : "Blodtryk hjemme diastolisk;Arm"
	          },{
                    "system": "urn:iso:std:iso:11073:10101",
                    "code": "150022",
                    "display": "MDC_PRESS_BLD_NONINV_DIA"
                  },{
                    "system": "http://loinc.org",
                    "code": "8462-4",
                    "display": "Diastolic blood pressure"
                  }
                ],
                "text": "MDC_PRESS_BLD_NONINV_DIA: Diastolic blood pressure"
              }      
            },
            {
              "url": "permittedDataType",
              "valueCode": "Quantity"
            },
            {
              "url": "quantitativeDetails",
              "extension": [
                {
                  "url": "unit",
                  "valueCodeableConcept": {
                    "unit": {
                      "coding": [{
                        "system": "http://unitsofmeasure.org",
                        "code": "mm[Hg]",
                        "display": "mmHg"
                      }],
                      "text": "mmHg"
                    }
                  }
                }
              ]
            }
          ]
        },
        {
          "url": "https://issuetracker4s.atlassian.net/wiki/spaces/FHIRReg/pages/186744833/ObservationDefinition+url+extension",
          "valueUri": "canonical://uuid/ObservationDefinition/271e0cfc-666f-41f5-b5f1-2ed8f6b6ccc6"
        },
        {
          "url": "https://issuetracker4s.atlassian.net/wiki/spaces/FHIRReg/pages/197066753/ObservationDefinition+version+extension",
          "valueString": "1.0.0"
        }
      ],
      "code": {
        "coding": [
          {
            "system": "urn:iso:std:iso:11073:10101",
            "code": "150020",
            "display": "MDC_PRESS_BLD_NONINV"
          },{
            "system": "http://loinc.org",
            "code": "85354-9",
            "display": "Blood pressure panel"
          }
        ],
        "text": "MDC_PRESS_BLD_NONINV: Blood pressure"
      },
      "category": [{
        "coding": [{
          "system": "http://terminology.hl7.org/CodeSystem/observation-category",
          "code": "vital-signs"
        }]
      }]
    },
    {
      "resourceType": "ObservationDefinition",
      "id": "obsdef3",
      "identifier": [{
        "system": "urn:ietf:rfc:3986",
        "value": "369d634c-00a2-4395-843b-1dc88c853c19"
      }],
      "meta": {
        "profile": ["https://issuetracker4s.atlassian.net/wiki/spaces/FDM/pages/47382723/FHIR+ObservationDefinition"]
      },
      "extension": [
        {
          "url": "https://issuetracker4s.atlassian.net/wiki/spaces/FHIRReg/pages/100466693/ObservationDefinition+dataEntryMethod+extension",
          "valueCoding": {
            "code": "both",
            "system": "https://issuetracker4s.atlassian.net/wiki/spaces/FHIRReg/pages/100728837/ObservationDefinition+dataEntryMethod+coding+system",
            "display": "Enhver metode"
          }
        },
        {
          "url": "https://issuetracker4s.atlassian.net/wiki/spaces/FHIRReg/pages/186744833/ObservationDefinition+url+extension",
          "valueUri": "canonical://uuid/ObservationDefinition/369d634c-00a2-4395-843b-1dc88c853c19"
        },
        {
          "url": "https://issuetracker4s.atlassian.net/wiki/spaces/FHIRReg/pages/197066753/ObservationDefinition+version+extension",
          "valueString": "1.0.0"
        }
      ],
      "code": {
        "system": "urn:iso:std:iso:11073:10101",
        "code": "531969",
        "display": "MDC_ID_MODEL_NUMBER"
      },
      "permittedDataType": [
        {
          "system": "http://hl7.org/fhir/data-types",
          "code": "string"
        }
      ]
    }
  ],
  "item": [
    {
      "linkId": "group1",
      "extension": [{
        "url": "https://issuetracker4s.atlassian.net/wiki/spaces/FHIRReg/pages/114720777/Questionnaire+optionalMeasurement",
        "valueReference": {
          "reference": "#devdef1",
          "type": "DeviceDefinition"
        }
      }],
      "code": [{
        "system": "urn:oid:1.2.208.180.42.2.1",
        "code": "Weight",
        "display": "Din vægt"
      }],
      "text": "Din vægt",
      "type": "group",
      "item": [{
	"linkId": "observation1",
	"text": "Vej dig på en badevægt og indtast din vægt her",
	"type": "quantity",
        "code": [
          {
	    "system" : "urn:oid:1.2.208.176.2.1",
	    "code" : "NPU03804",
	    "display" : "Legeme masse; Pt"
	  }, {
            "system": "urn:iso:std:iso:11073:10101",
            "code": "188736",
            "display": "MDC_MASS_BODY_ACTUAL"
          },{
            "system": "http://loinc.org",
            "code": "29463-7",
            "display": "Body weight"
          }
        ],
        "extension": [
          {
	    "url": "http://hl7.org/fhir/StructureDefinition/questionnaire-unit",
	    "valueCoding": {
              "system": "http://unitsofmeasure.org",
              "code": "kg",
              "display": "kg"
            }
	  },{
            "url": "https://issuetracker4s.atlassian.net/wiki/spaces/FHIRReg/pages/115539981/Questionnaire+observationDefinition",
            "valueReference": {
              "reference": "#obsdef1"
            }
          }
        ]
      }]
    },
    {
      "linkId": "group2",
      "extension": [{
        "url": "https://issuetracker4s.atlassian.net/wiki/spaces/FHIRReg/pages/114720777/Questionnaire+optionalMeasurement",
        "valueReference": {
          "reference": "#devdef2", 
          "type": "DeviceDefinition"
        }
      }],
      "code": [{
        "system": "1.2.208.180.42.2.1",
        "code": "BP",
        "display": "Dit blodtryk"
      }],
      "text": "Dit blodtryk",
      "type": "group",
      "item": [
        {
	  "linkId": "observation2",
	  "text": "Indtast det systoliske blodtryk",
	  "type": "quantity",
          "code": [
            {
	      "system" : "urn:oid:1.2.208.176.2.1",
	      "code" : "MCS88019",
	      "display" : "Blodtryk hjemme systolisk;Arm"
	    },{
              "system": "http://loinc.org",
              "code": "8480-6",
              "display": "Systolic blood pressure"
            },{
              "system": "urn:iso:std:iso:11073:10101",
              "code": "150021",
              "display": "MDC_PRESS_BLD_NONINV_SYS"
            }
          ],
          "extension": [
            {
	      "url": "http://hl7.org/fhir/StructureDefinition/questionnaire-unit",
	      "valueCoding": {
                "system": "http://unitsofmeasure.org",
                "code": "mm[Hg]",
                "display": "mmHg"
              }
	    },{
              "url": "https://issuetracker4s.atlassian.net/wiki/spaces/FHIRReg/pages/115539981/Questionnaire+observationDefinition",
              "valueReference": {
                "reference": "#obsdef2"
              }
            }
          ]
        }, {
	  "linkId": "observation3",
	  "text": "Indtast det diastoliske blodtryk",
	  "type": "quantity",
          "code": [
            {
	      "system" : "urn:oid:1.2.208.176.2.1",
	      "code" : "MCS88020",
	      "display" : "Blodtryk hjemme diastolisk;Arm"
	    },{
              "system": "http://loinc.org",
              "code": "8462-4",
              "display": "Diastolic blood pressure"
            },{
              "system": "urn:iso:std:iso:11073:10101",
              "code": "150022",
              "display": "MDC_PRESS_BLD_NONINV_DIA"
            }
          ],
          "extension": [
            {
	      "url": "http://hl7.org/fhir/StructureDefinition/questionnaire-unit",
	      "valueCoding": {
                "system": "http://unitsofmeasure.org",
                "code": "mm[Hg]",
                "display": "mmHg"
              }
	    },{
              "url": "https://issuetracker4s.atlassian.net/wiki/spaces/FHIRReg/pages/115539981/Questionnaire+observationDefinition",
              "valueReference": {
                "reference": "#obsdef2"
              }
            }
          ]
        },{
	  "linkId": "observation4",
	  "text": "Indtast din blodtryksmålers modelbetegnelse",
	  "type": "string",
          "code": [
            {
	      "system" : "urn:oid:1.2.208.180.42.2.2",
	      "code" : "ModelNumber",
	      "display" : "Apparatets modelbetegnelse"
            },{
              "system": "urn:iso:std:iso:11073:10101",
              "code": "531969",
              "display": "MDC_ID_MODEL_NUMBER"
            }
          ],
          "extension": [
            {
              "url": "https://issuetracker4s.atlassian.net/wiki/spaces/FHIRReg/pages/115539981/Questionnaire+observationDefinition",
              "valueReference": {
                "reference": "#obsdef3"
              }
            }
          ]
        }
      ]
    }
  ]
}
