{
    "minutes" :75.2,
    "type" : "appleExerciseTime",
    "dataSources" : [
      {
        "productType" : "iPhone9,3",
        "identifier" : "00966a29-4b16-409b-907d-5d0a2b8027af",
        "operatingSystemVersion" : {
          "major" : 0,
          "minor" : 0,
          "patch" : 0
        },
        "appVersion" : "10.3.2"
      }
    ],
    "startTime" : 1591696800,
    "endTime" : 1591700400,
    "additionalInfo": {
      "dataPluginName": "insight",
      "dataPluginVersion": "1.0.2",
      "dataPluginType": "ios",
      "dataPluginProcessType": "historical"
    }
}