{
  "dataSources": [
    {
      "operatingSystemVersion": {
        "minor": 1,
        "major": 6,
        "patch": 3
      },
      "appVersion": "6.1.3",
      "productType": "Watch5,1",
      "identifier": "00966a29-4b16-409b-907d-5d0a2b8027af"
    }
  ],
  "endTime": 1591768800,
  "startTime": 1591765200,
  "type": "distanceCycling",
  "distanceCycling": 12.405047548510163,
  "additionalInfo": {
    "dataPluginName": "insight",
    "dataPluginVersion": "1.0.2",
    "dataPluginType": "ios",
    "dataPluginProcessType": "foreground"
  }
}