{
    "type" : "restingHeartRate",
    "restingHeartRate" : {
      "maximum" : 50,
      "minimum" : 48,
      "average" : 49
    },
    "dataSources" : [
      {
        "productType" : "Watch5,1",
        "appVersion" : "6.1.3",
        "identifier" : "00966a29-4b16-409b-907d-5d0a2b8027af",
        "operatingSystemVersion" : {
          "patch" : 3,
          "major" : 6,
          "minor" : 1
        }
      }
    ],
    "startTime" : 1591704000,
    "endTime" : 1591707600,
    "additionalInfo": {
      "dataPluginName": "insight",
      "dataPluginVersion": "1.0.2",
      "dataPluginType": "ios",
      "dataPluginProcessType": "background"
    }
}