{
    "type": "stepCount",
    "dataSources": [
      {
        "operatingSystemVersion": {
          "minor": 0,
          "major": 0,
          "patch": 0
        },
        "productType": "iPhone9,3",
        "appVersion": "10.3.2",
        "identifier": "07053a08-69e6-49d5-8594-52213b461f77"
      }
    ],
    "stepCount": 29,
    "startTime": 1594504811,
    "endTime": 1594507929,
    "additionalInfo": {
      "dataPluginVersion": "1.0.2",
      "pluginType": "ios",
      "processType": "background"
    }
  }