{
  "resourceType": "Questionnaire",
  "extension": [
    {
      "url": "https://issuetracker4s.atlassian.net/wiki/spaces/FHIRReg/pages/100565032/Questionnaire+managingOrganization+extension",
      "valueReference": {
        "identifier": {
          "system": "urn:oid:1.2.208.176.1.1",
          "value": "453191000016003"
        },
        "type": "Organization"
      }
    }
  ],
  "url": "canonical://uuid/Questionnaire/2761fbe9-f4d0-49c9-b96e-ae1129d1d4aa",
  "identifier": [
    {
      "system": "urn:ietf:rfc:3986",
      "value": "2761fbe9-f4d0-49c9-b96e-ae1129d1d4aa"
    }
  ],
  "version": "1.0.0",
  "name": "pprom_questionnaire_demo",
  "title": "PPROM",
  "status": "active",
  "subjectType": ["Patient"],
  "date": "2018-02-13",
  "jurisdiction": [
    {
      "coding": [
        {
          "system": "urn:oid:1.2.208.176.1.1",
          "code": "453191000016003",
          "display": "Region Midtjylland"
        }
      ],
      "text": "Region Midtjylland"
    }
  ],
  "contained": [
    {
      "resourceType": "Basic",
      "id": "thresholdSetForQuestionnaire",
      "extension": [
        {
          "url": "https://issuetracker4s.atlassian.net/wiki/spaces/FHIRReg/pages/100499511/ThresholdSet+version+extension",
          "valueString": "1.0.0"
        },
        {
          "url": "https://issuetracker4s.atlassian.net/wiki/spaces/FHIRReg/pages/100433991/ThresholdSet+status+extension",
          "valueCode": "active"
        },
        {
          "url": "https://issuetracker4s.atlassian.net/wiki/spaces/FHIRReg/pages/100433995/ThresholdSet+approvalDate+extension",
          "valueDateTime": "2019-03-28T13:05:03+01:00"
        },
        {
          "url": "https://issuetracker4s.atlassian.net/wiki/spaces/FHIRReg/pages/100565062/ThresholdSet+approvingPractitioner+extension",
          "valueReference": {
            "type": "Practitioner",
            "identifier": {
              "system": "https://stps.dk/da/sundhedsprofessionelle-og-myndigheder/autorisationsregister/autorisationsid/",
              "value": "55GT7"
            }
          }
        },
        {
          "url": "https://issuetracker4s.atlassian.net/wiki/spaces/FHIRReg/pages/100728906/ThresholdSet+appliesTo+extension",
          "valueCanonical": "canonical://uuid/Questionnaire/2761fbe9-f4d0-49c9-b96e-ae1129d1d4aa|1.0.0"
        },
        {
          "url": "https://issuetracker4s.atlassian.net/wiki/spaces/FHIRReg/pages/100499515/ThresholdSet+threshold+extension",
          "extension": [
            {
              "url": "https://issuetracker4s.atlassian.net/wiki/spaces/FHIRReg/pages/110460929/ThresholdSet+type+extension",
              "valueCodeableConcept": {
                "coding": [
                  {
                    "system": "https://issuetracker4s.atlassian.net/wiki/spaces/FHIRReg/pages/100728891/ThresholdSet+type+coding+system",
                    "code": "pathological",
                    "display": "Pathological threshold"
                  }
                ],
                "text": "Pathological threshold"
              }
            },
            {
              "url": "https://issuetracker4s.atlassian.net/wiki/spaces/FHIRReg/pages/100728921/ThresholdSet+effectiveWhen+extension",
              "extension": [
                {
                  "url": "https://issuetracker4s.atlassian.net/wiki/spaces/FHIRReg/pages/100728925/ThresholdSet+component+extension",
                  "valueCoding": {
                    "system": "https://issuetracker4s.atlassian.net/wiki/spaces/FHIRReg/pages/100433987/ThresholdSet+component+coding+system",
                    "code": "uterusSore"
                  }
                },
                {
                  "url": "https://issuetracker4s.atlassian.net/wiki/spaces/FHIRReg/pages/100565090/ThresholdSet+valueBoolean+extension",
                  "valueBoolean": true
                },
                {
                  "url": "https://issuetracker4s.atlassian.net/wiki/spaces/FHIRReg/pages/100499530/ThresholdSet+operator+extension",
                  "valueCode": "="
                }
              ]
            },
            {
              "url": "https://issuetracker4s.atlassian.net/wiki/spaces/FHIRReg/pages/100728931/ThresholdSet+effectiveBehavior+extension",
              "valueCode": "any"
            }
          ]
        },
        {
          "url": "https://issuetracker4s.atlassian.net/wiki/spaces/FHIRReg/pages/100499515/ThresholdSet+threshold+extension",
          "extension": [
            {
              "url": "https://issuetracker4s.atlassian.net/wiki/spaces/FHIRReg/pages/110460929/ThresholdSet+type+extension",
              "valueCodeableConcept": {
                "coding": [
                  {
                    "system": "https://issuetracker4s.atlassian.net/wiki/spaces/FHIRReg/pages/100728891/ThresholdSet+type+coding+system",
                    "code": "normal",
                    "display": "Normal threshold"
                  }
                ],
                "text": "Normal threshold"
              }
            },
            {
              "url": "https://issuetracker4s.atlassian.net/wiki/spaces/FHIRReg/pages/100728921/ThresholdSet+effectiveWhen+extension",
              "extension": [
                {
                  "url": "https://issuetracker4s.atlassian.net/wiki/spaces/FHIRReg/pages/100728925/ThresholdSet+component+extension",
                  "valueCoding": {
                    "system": "https://issuetracker4s.atlassian.net/wiki/spaces/FHIRReg/pages/100433987/ThresholdSet+component+coding+system",
                    "code": "uterusSore"
                  }
                },
                {
                  "url": "https://issuetracker4s.atlassian.net/wiki/spaces/FHIRReg/pages/100565090/ThresholdSet+valueBoolean+extension",
                  "valueBoolean": false
                },
                {
                  "url": "https://issuetracker4s.atlassian.net/wiki/spaces/FHIRReg/pages/100499530/ThresholdSet+operator+extension",
                  "valueCode": "="
                }
              ]
            },
            {
              "url": "https://issuetracker4s.atlassian.net/wiki/spaces/FHIRReg/pages/100728931/ThresholdSet+effectiveBehavior+extension",
              "valueCode": "any"
            }
          ]
        },
        {
          "url": "https://issuetracker4s.atlassian.net/wiki/spaces/FHIRReg/pages/100499515/ThresholdSet+threshold+extension",
          "extension": [
            {
              "url": "https://issuetracker4s.atlassian.net/wiki/spaces/FHIRReg/pages/110460929/ThresholdSet+type+extension",
              "valueCodeableConcept": {
                "coding": [
                  {
                    "system": "https://issuetracker4s.atlassian.net/wiki/spaces/FHIRReg/pages/100728891/ThresholdSet+type+coding+system",
                    "code": "pathological",
                    "display": "Pathological threshold"
                  }
                ],
                "text": "Pathological threshold"
              }
            },
            {
              "url": "https://issuetracker4s.atlassian.net/wiki/spaces/FHIRReg/pages/100728921/ThresholdSet+effectiveWhen+extension",
              "extension": [
                {
                  "url": "https://issuetracker4s.atlassian.net/wiki/spaces/FHIRReg/pages/100728925/ThresholdSet+component+extension",
                  "valueCoding": {
                    "system": "https://issuetracker4s.atlassian.net/wiki/spaces/FHIRReg/pages/100433987/ThresholdSet+component+coding+system",
                    "code": "hasHighPulse"
                  }
                },
                {
                  "url": "https://issuetracker4s.atlassian.net/wiki/spaces/FHIRReg/pages/100565090/ThresholdSet+valueBoolean+extension",
                  "valueBoolean": true
                },
                {
                  "url": "https://issuetracker4s.atlassian.net/wiki/spaces/FHIRReg/pages/100499530/ThresholdSet+operator+extension",
                  "valueCode": "="
                }
              ]
            },
            {
              "url": "https://issuetracker4s.atlassian.net/wiki/spaces/FHIRReg/pages/100728931/ThresholdSet+effectiveBehavior+extension",
              "valueCode": "any"
            }
          ]
        },
        {
          "url": "https://issuetracker4s.atlassian.net/wiki/spaces/FHIRReg/pages/100499515/ThresholdSet+threshold+extension",
          "extension": [
            {
              "url": "https://issuetracker4s.atlassian.net/wiki/spaces/FHIRReg/pages/110460929/ThresholdSet+type+extension",
              "valueCodeableConcept": {
                "coding": [
                  {
                    "system": "https://issuetracker4s.atlassian.net/wiki/spaces/FHIRReg/pages/100728891/ThresholdSet+type+coding+system",
                    "code": "normal",
                    "display": "Normal threshold"
                  }
                ],
                "text": "Normal threshold"
              }
            },
            {
              "url": "https://issuetracker4s.atlassian.net/wiki/spaces/FHIRReg/pages/100728921/ThresholdSet+effectiveWhen+extension",
              "extension": [
                {
                  "url": "https://issuetracker4s.atlassian.net/wiki/spaces/FHIRReg/pages/100728925/ThresholdSet+component+extension",
                  "valueCoding": {
                    "system": "https://issuetracker4s.atlassian.net/wiki/spaces/FHIRReg/pages/100433987/ThresholdSet+component+coding+system",
                    "code": "hasHighPulse"
                  }
                },
                {
                  "url": "https://issuetracker4s.atlassian.net/wiki/spaces/FHIRReg/pages/100565090/ThresholdSet+valueBoolean+extension",
                  "valueBoolean": false
                },
                {
                  "url": "https://issuetracker4s.atlassian.net/wiki/spaces/FHIRReg/pages/100499530/ThresholdSet+operator+extension",
                  "valueCode": "="
                }
              ]
            },
            {
              "url": "https://issuetracker4s.atlassian.net/wiki/spaces/FHIRReg/pages/100728931/ThresholdSet+effectiveBehavior+extension",
              "valueCode": "any"
            }
          ]
        },
        {
          "url": "https://issuetracker4s.atlassian.net/wiki/spaces/FHIRReg/pages/100499515/ThresholdSet+threshold+extension",
          "extension": [
            {
              "url": "https://issuetracker4s.atlassian.net/wiki/spaces/FHIRReg/pages/110460929/ThresholdSet+type+extension",
              "valueCodeableConcept": {
                "coding": [
                  {
                    "system": "https://issuetracker4s.atlassian.net/wiki/spaces/FHIRReg/pages/100728891/ThresholdSet+type+coding+system",
                    "code": "pathological",
                    "display": "Pathological threshold"
                  }
                ],
                "text": "Pathological threshold"
              }
            },
            {
              "url": "https://issuetracker4s.atlassian.net/wiki/spaces/FHIRReg/pages/100728921/ThresholdSet+effectiveWhen+extension",
              "extension": [
                {
                  "url": "https://issuetracker4s.atlassian.net/wiki/spaces/FHIRReg/pages/100728925/ThresholdSet+component+extension",
                  "valueCoding": {
                    "system": "https://issuetracker4s.atlassian.net/wiki/spaces/FHIRReg/pages/100433987/ThresholdSet+component+coding+system",
                    "code": "hasHighTemperatur"
                  }
                },
                {
                  "url": "https://issuetracker4s.atlassian.net/wiki/spaces/FHIRReg/pages/100565090/ThresholdSet+valueBoolean+extension",
                  "valueBoolean": true
                },
                {
                  "url": "https://issuetracker4s.atlassian.net/wiki/spaces/FHIRReg/pages/100499530/ThresholdSet+operator+extension",
                  "valueCode": "="
                }
              ]
            },
            {
              "url": "https://issuetracker4s.atlassian.net/wiki/spaces/FHIRReg/pages/100728931/ThresholdSet+effectiveBehavior+extension",
              "valueCode": "any"
            }
          ]
        },
        {
          "url": "https://issuetracker4s.atlassian.net/wiki/spaces/FHIRReg/pages/100499515/ThresholdSet+threshold+extension",
          "extension": [
            {
              "url": "https://issuetracker4s.atlassian.net/wiki/spaces/FHIRReg/pages/110460929/ThresholdSet+type+extension",
              "valueCodeableConcept": {
                "coding": [
                  {
                    "system": "https://issuetracker4s.atlassian.net/wiki/spaces/FHIRReg/pages/100728891/ThresholdSet+type+coding+system",
                    "code": "normal",
                    "display": "Normal threshold"
                  }
                ],
                "text": "Normal threshold"
              }
            },
            {
              "url": "https://issuetracker4s.atlassian.net/wiki/spaces/FHIRReg/pages/100728921/ThresholdSet+effectiveWhen+extension",
              "extension": [
                {
                  "url": "https://issuetracker4s.atlassian.net/wiki/spaces/FHIRReg/pages/100728925/ThresholdSet+component+extension",
                  "valueCoding": {
                    "system": "https://issuetracker4s.atlassian.net/wiki/spaces/FHIRReg/pages/100433987/ThresholdSet+component+coding+system",
                    "code": "hasHighTemperatur"
                  }
                },
                {
                  "url": "https://issuetracker4s.atlassian.net/wiki/spaces/FHIRReg/pages/100565090/ThresholdSet+valueBoolean+extension",
                  "valueBoolean": false
                },
                {
                  "url": "https://issuetracker4s.atlassian.net/wiki/spaces/FHIRReg/pages/100499530/ThresholdSet+operator+extension",
                  "valueCode": "="
                }
              ]
            },
            {
              "url": "https://issuetracker4s.atlassian.net/wiki/spaces/FHIRReg/pages/100728931/ThresholdSet+effectiveBehavior+extension",
              "valueCode": "any"
            }
          ]
        },
        {
          "url": "https://issuetracker4s.atlassian.net/wiki/spaces/FHIRReg/pages/100499515/ThresholdSet+threshold+extension",
          "extension": [
            {
              "url": "https://issuetracker4s.atlassian.net/wiki/spaces/FHIRReg/pages/110460929/ThresholdSet+type+extension",
              "valueCodeableConcept": {
                "coding": [
                  {
                    "system": "https://issuetracker4s.atlassian.net/wiki/spaces/FHIRReg/pages/100728891/ThresholdSet+type+coding+system",
                    "code": "pathological",
                    "display": "Pathological threshold"
                  }
                ],
                "text": "Pathological threshold"
              }
            },
            {
              "url": "https://issuetracker4s.atlassian.net/wiki/spaces/FHIRReg/pages/100728921/ThresholdSet+effectiveWhen+extension",
              "extension": [
                {
                  "url": "https://issuetracker4s.atlassian.net/wiki/spaces/FHIRReg/pages/100728925/ThresholdSet+component+extension",
                  "valueCoding": {
                    "system": "https://issuetracker4s.atlassian.net/wiki/spaces/FHIRReg/pages/100433987/ThresholdSet+component+coding+system",
                    "code": "hasBraxtonHicksContractions"
                  }
                },
                {
                  "url": "https://issuetracker4s.atlassian.net/wiki/spaces/FHIRReg/pages/100565090/ThresholdSet+valueBoolean+extension",
                  "valueBoolean": true
                },
                {
                  "url": "https://issuetracker4s.atlassian.net/wiki/spaces/FHIRReg/pages/100499530/ThresholdSet+operator+extension",
                  "valueCode": "="
                }
              ]
            },
            {
              "url": "https://issuetracker4s.atlassian.net/wiki/spaces/FHIRReg/pages/100728931/ThresholdSet+effectiveBehavior+extension",
              "valueCode": "any"
            }
          ]
        },
        {
          "url": "https://issuetracker4s.atlassian.net/wiki/spaces/FHIRReg/pages/100499515/ThresholdSet+threshold+extension",
          "extension": [
            {
              "url": "https://issuetracker4s.atlassian.net/wiki/spaces/FHIRReg/pages/110460929/ThresholdSet+type+extension",
              "valueCodeableConcept": {
                "coding": [
                  {
                    "system": "https://issuetracker4s.atlassian.net/wiki/spaces/FHIRReg/pages/100728891/ThresholdSet+type+coding+system",
                    "code": "normal",
                    "display": "Normal threshold"
                  }
                ],
                "text": "Normal threshold"
              }
            },
            {
              "url": "https://issuetracker4s.atlassian.net/wiki/spaces/FHIRReg/pages/100728921/ThresholdSet+effectiveWhen+extension",
              "extension": [
                {
                  "url": "https://issuetracker4s.atlassian.net/wiki/spaces/FHIRReg/pages/100728925/ThresholdSet+component+extension",
                  "valueCoding": {
                    "system": "https://issuetracker4s.atlassian.net/wiki/spaces/FHIRReg/pages/100433987/ThresholdSet+component+coding+system",
                    "code": "hasBraxtonHicksContractions"
                  }
                },
                {
                  "url": "https://issuetracker4s.atlassian.net/wiki/spaces/FHIRReg/pages/100565090/ThresholdSet+valueBoolean+extension",
                  "valueBoolean": false
                },
                {
                  "url": "https://issuetracker4s.atlassian.net/wiki/spaces/FHIRReg/pages/100499530/ThresholdSet+operator+extension",
                  "valueCode": "="
                }
              ]
            },
            {
              "url": "https://issuetracker4s.atlassian.net/wiki/spaces/FHIRReg/pages/100728931/ThresholdSet+effectiveBehavior+extension",
              "valueCode": "any"
            }
          ]
        },
        {
          "url": "https://issuetracker4s.atlassian.net/wiki/spaces/FHIRReg/pages/100499515/ThresholdSet+threshold+extension",
          "extension": [
            {
              "url": "https://issuetracker4s.atlassian.net/wiki/spaces/FHIRReg/pages/110460929/ThresholdSet+type+extension",
              "valueCodeableConcept": {
                "coding": [
                  {
                    "system": "https://issuetracker4s.atlassian.net/wiki/spaces/FHIRReg/pages/100728891/ThresholdSet+type+coding+system",
                    "code": "pathological",
                    "display": "Pathological threshold"
                  }
                ],
                "text": "Pathological threshold"
              }
            },
            {
              "url": "https://issuetracker4s.atlassian.net/wiki/spaces/FHIRReg/pages/100728921/ThresholdSet+effectiveWhen+extension",
              "extension": [
                {
                  "url": "https://issuetracker4s.atlassian.net/wiki/spaces/FHIRReg/pages/100728925/ThresholdSet+component+extension",
                  "valueCoding": {
                    "system": "https://issuetracker4s.atlassian.net/wiki/spaces/FHIRReg/pages/100433987/ThresholdSet+component+coding+system",
                    "code": "hasWeightSensation"
                  }
                },
                {
                  "url": "https://issuetracker4s.atlassian.net/wiki/spaces/FHIRReg/pages/100565090/ThresholdSet+valueBoolean+extension",
                  "valueBoolean": false
                },
                {
                  "url": "https://issuetracker4s.atlassian.net/wiki/spaces/FHIRReg/pages/100499530/ThresholdSet+operator+extension",
                  "valueCode": "="
                }
              ]
            },
            {
              "url": "https://issuetracker4s.atlassian.net/wiki/spaces/FHIRReg/pages/100728931/ThresholdSet+effectiveBehavior+extension",
              "valueCode": "any"
            }
          ]
        },
        {
          "url": "https://issuetracker4s.atlassian.net/wiki/spaces/FHIRReg/pages/100499515/ThresholdSet+threshold+extension",
          "extension": [
            {
              "url": "https://issuetracker4s.atlassian.net/wiki/spaces/FHIRReg/pages/110460929/ThresholdSet+type+extension",
              "valueCodeableConcept": {
                "coding": [
                  {
                    "system": "https://issuetracker4s.atlassian.net/wiki/spaces/FHIRReg/pages/100728891/ThresholdSet+type+coding+system",
                    "code": "normal",
                    "display": "Normal threshold"
                  }
                ],
                "text": "Normal threshold"
              }
            },
            {
              "url": "https://issuetracker4s.atlassian.net/wiki/spaces/FHIRReg/pages/100728921/ThresholdSet+effectiveWhen+extension",
              "extension": [
                {
                  "url": "https://issuetracker4s.atlassian.net/wiki/spaces/FHIRReg/pages/100728925/ThresholdSet+component+extension",
                  "valueCoding": {
                    "system": "https://issuetracker4s.atlassian.net/wiki/spaces/FHIRReg/pages/100433987/ThresholdSet+component+coding+system",
                    "code": "hasWeightSensation"
                  }
                },
                {
                  "url": "https://issuetracker4s.atlassian.net/wiki/spaces/FHIRReg/pages/100565090/ThresholdSet+valueBoolean+extension",
                  "valueBoolean": true
                },
                {
                  "url": "https://issuetracker4s.atlassian.net/wiki/spaces/FHIRReg/pages/100499530/ThresholdSet+operator+extension",
                  "valueCode": "="
                }
              ]
            },
            {
              "url": "https://issuetracker4s.atlassian.net/wiki/spaces/FHIRReg/pages/100728931/ThresholdSet+effectiveBehavior+extension",
              "valueCode": "any"
            }
          ]
        },
        {
          "url": "https://issuetracker4s.atlassian.net/wiki/spaces/FHIRReg/pages/100499515/ThresholdSet+threshold+extension",
          "extension": [
            {
              "url": "https://issuetracker4s.atlassian.net/wiki/spaces/FHIRReg/pages/110460929/ThresholdSet+type+extension",
              "valueCodeableConcept": {
                "coding": [
                  {
                    "system": "https://issuetracker4s.atlassian.net/wiki/spaces/FHIRReg/pages/100728891/ThresholdSet+type+coding+system",
                    "code": "pathological",
                    "display": "Pathological threshold"
                  }
                ],
                "text": "Pathological threshold"
              }
            },
            {
              "url": "https://issuetracker4s.atlassian.net/wiki/spaces/FHIRReg/pages/100728921/ThresholdSet+effectiveWhen+extension",
              "extension": [
                {
                  "url": "https://issuetracker4s.atlassian.net/wiki/spaces/FHIRReg/pages/100728925/ThresholdSet+component+extension",
                  "valueCoding": {
                    "system": "https://issuetracker4s.atlassian.net/wiki/spaces/FHIRReg/pages/100433987/ThresholdSet+component+coding+system",
                    "code": "childMoving"
                  }
                },
                {
                  "url": "https://issuetracker4s.atlassian.net/wiki/spaces/FHIRReg/pages/100565090/ThresholdSet+valueBoolean+extension",
                  "valueBoolean": false
                },
                {
                  "url": "https://issuetracker4s.atlassian.net/wiki/spaces/FHIRReg/pages/100499530/ThresholdSet+operator+extension",
                  "valueCode": "="
                }
              ]
            },
            {
              "url": "https://issuetracker4s.atlassian.net/wiki/spaces/FHIRReg/pages/100728931/ThresholdSet+effectiveBehavior+extension",
              "valueCode": "any"
            }
          ]
        },
        {
          "url": "https://issuetracker4s.atlassian.net/wiki/spaces/FHIRReg/pages/100499515/ThresholdSet+threshold+extension",
          "extension": [
            {
              "url": "https://issuetracker4s.atlassian.net/wiki/spaces/FHIRReg/pages/110460929/ThresholdSet+type+extension",
              "valueCodeableConcept": {
                "coding": [
                  {
                    "system": "https://issuetracker4s.atlassian.net/wiki/spaces/FHIRReg/pages/100728891/ThresholdSet+type+coding+system",
                    "code": "normal",
                    "display": "Normal threshold"
                  }
                ],
                "text": "Normal threshold"
              }
            },
            {
              "url": "https://issuetracker4s.atlassian.net/wiki/spaces/FHIRReg/pages/100728921/ThresholdSet+effectiveWhen+extension",
              "extension": [
                {
                  "url": "https://issuetracker4s.atlassian.net/wiki/spaces/FHIRReg/pages/100728925/ThresholdSet+component+extension",
                  "valueCoding": {
                    "system": "https://issuetracker4s.atlassian.net/wiki/spaces/FHIRReg/pages/100433987/ThresholdSet+component+coding+system",
                    "code": "childMoving"
                  }
                },
                {
                  "url": "https://issuetracker4s.atlassian.net/wiki/spaces/FHIRReg/pages/100565090/ThresholdSet+valueBoolean+extension",
                  "valueBoolean": true
                },
                {
                  "url": "https://issuetracker4s.atlassian.net/wiki/spaces/FHIRReg/pages/100499530/ThresholdSet+operator+extension",
                  "valueCode": "="
                }
              ]
            },
            {
              "url": "https://issuetracker4s.atlassian.net/wiki/spaces/FHIRReg/pages/100728931/ThresholdSet+effectiveBehavior+extension",
              "valueCode": "any"
            }
          ]
        }
      ],
      "identifier": [
        {
          "system": "urn:ietf:rfc:3986",
          "value": "2b3dfcb1-0312-4248-a437-49c63ccb1c7e"
        }
      ],
      "code": {
        "coding": [
          {
            "system": "https://issuetracker4s.atlassian.net/wiki/spaces/FHIRReg/pages/100728935/Custom+FHIR+Resources+coding+system",
            "code": "thresholdset",
            "display": "ThresholdSet"
          }
        ],
        "text": "ThresholdSet"
      }
    },
    {
      "resourceType": "DeviceDefinition",
      "id": "deviceBloodpressure",
      "type": {
        "coding": [
          {
            "system": "urn:iso:std:iso:11073:10101",
            "code": "528391"
          }
        ],
        "text": "MDC_DEV_SPEC_PROFILE_BP: Blood Pressure Meter"
      }
    },
    {
      "resourceType": "ObservationDefinition",
      "id": "obsdefSystolic",
      "extension": [
        {
          "url": "https://issuetracker4s.atlassian.net/wiki/spaces/FHIRReg/pages/186744833/ObservationDefinition+url+extension",
          "valueUri": "canonical://uuid/ObservationDefinition/4707b7e7-44fa-4ef5-a04a-f1c1b486df46"
        },
        {
          "url": "https://issuetracker4s.atlassian.net/wiki/spaces/FHIRReg/pages/197066753/ObservationDefinition+version+extension",
          "valueString": "1.0.0"
        },
        {
          "url": "https://issuetracker4s.atlassian.net/wiki/spaces/FHIRReg/pages/100466693/ObservationDefinition+dataEntryMethod+extension",
          "valueCoding": {
            "system": "https://issuetracker4s.atlassian.net/wiki/spaces/FHIRReg/pages/100728837/ObservationDefinition+dataEntryMethod+coding+system",
            "code": "manual",
            "display": "Manuel indtastning"
          }
        },
        {
          "url": "https://issuetracker4s.atlassian.net/wiki/spaces/FHIRReg/pages/291897345/ObservationDefinition+derivedFromCanonical+extension",
          "valueCanonical": "canonical://uuid/ObservationDefinition/3d45297d-a858-4b3e-b68c-da9523c1e173|1.0.0"
        }
      ],
      "code": {
        "coding": [
          {
            "system": "urn:oid:1.2.208.176.2.1",
            "code": "MCS88019",
            "display": "Blodtryk hjemme systolisk;Arm"
          },
          {
            "system": "urn:iso:std:iso:11073:10101",
            "code": "150021",
            "display": "MDC_PRESS_BLD_NONINV_SYS"
          },
          {
            "system": "http://loinc.org",
            "code": "8480-6",
            "display": "Systolic blood pressure"
          }
        ],
        "text": "MDC_PRESS_BLD_NONINV_SYS: Systolic blood pressure"
      },
      "identifier": [
        {
          "system": "urn:ietf:rfc:3986",
          "value": "4707b7e7-44fa-4ef5-a04a-f1c1b486df46"
        }
      ],
      "permittedDataType": ["Quantity"],
      "quantitativeDetails": {
        "unit": {
          "coding": [
            {
              "system": "http://unitsofmeasure.org",
              "code": "mm[Hg]",
              "display": "mmHg"
            }
          ],
          "text": "mmHg"
        }
      }
    },
    {
      "resourceType": "ObservationDefinition",
      "id": "obsdefDiastolic",
      "extension": [
        {
          "url": "https://issuetracker4s.atlassian.net/wiki/spaces/FHIRReg/pages/186744833/ObservationDefinition+url+extension",
          "valueUri": "canonical://uuid/ObservationDefinition/5f9b29bc-10e5-494d-a9f3-ae32581e308e"
        },
        {
          "url": "https://issuetracker4s.atlassian.net/wiki/spaces/FHIRReg/pages/197066753/ObservationDefinition+version+extension",
          "valueString": "1.0.0"
        },
        {
          "url": "https://issuetracker4s.atlassian.net/wiki/spaces/FHIRReg/pages/100466693/ObservationDefinition+dataEntryMethod+extension",
          "valueCoding": {
            "system": "https://issuetracker4s.atlassian.net/wiki/spaces/FHIRReg/pages/100728837/ObservationDefinition+dataEntryMethod+coding+system",
            "code": "manual",
            "display": "Manuel indtastning"
          }
        },
        {
          "url": "https://issuetracker4s.atlassian.net/wiki/spaces/FHIRReg/pages/291897345/ObservationDefinition+derivedFromCanonical+extension",
          "valueCanonical": "canonical://uuid/ObservationDefinition/550375a4-3e22-4ee1-be73-c19964a8d014|1.0.0"
        }
      ],
      "code": {
        "coding": [
          {
            "system": "urn:oid:1.2.208.176.2.1",
            "code": "MCS88020",
            "display": "Blodtryk hjemme diastolisk;Arm"
          },
          {
            "system": "urn:iso:std:iso:11073:10101",
            "code": "150022",
            "display": "MDC_PRESS_BLD_NONINV_DIA"
          },
          {
            "system": "http://loinc.org",
            "code": "8462-4",
            "display": "Diastolic blood pressure"
          }
        ],
        "text": "MDC_PRESS_BLD_NONINV_DIA: Diastolic blood pressure"
      },
      "identifier": [
        {
          "system": "urn:ietf:rfc:3986",
          "value": "5f9b29bc-10e5-494d-a9f3-ae32581e308e"
        }
      ],
      "permittedDataType": ["Quantity"],
      "quantitativeDetails": {
        "unit": {
          "coding": [
            {
              "system": "http://unitsofmeasure.org",
              "code": "mm[Hg]",
              "display": "mmHg"
            }
          ],
          "text": "mmHg"
        }
      }
    },
    {
      "resourceType": "ObservationDefinition",
      "id": "obsdefPulse",
      "extension": [
        {
          "url": "https://issuetracker4s.atlassian.net/wiki/spaces/FHIRReg/pages/186744833/ObservationDefinition+url+extension",
          "valueUri": "canonical://uuid/ObservationDefinition/e9f05b64-f0cf-46cc-a6d2-e99547e291d6"
        },
        {
          "url": "https://issuetracker4s.atlassian.net/wiki/spaces/FHIRReg/pages/197066753/ObservationDefinition+version+extension",
          "valueString": "1.0.0"
        },
        {
          "url": "https://issuetracker4s.atlassian.net/wiki/spaces/FHIRReg/pages/100466693/ObservationDefinition+dataEntryMethod+extension",
          "valueCoding": {
            "system": "https://issuetracker4s.atlassian.net/wiki/spaces/FHIRReg/pages/100728837/ObservationDefinition+dataEntryMethod+coding+system",
            "code": "manual",
            "display": "Manuel indtastning"
          }
        },
        {
          "url": "https://issuetracker4s.atlassian.net/wiki/spaces/FHIRReg/pages/291897345/ObservationDefinition+derivedFromCanonical+extension",
          "valueCanonical": "canonical://uuid/ObservationDefinition/2a2ed5a5-5e0c-4af2-8ed9-ad9535094ee5|1.0.0"
        },
        {
          "url": "https://issuetracker4s.atlassian.net/wiki/spaces/FHIRReg/pages/321945601/ObservationDefinition+observationProfile",
          "valueCanonical": "http://hl7.org/fhir/StructureDefinition/heartrate"
        }
      ],
      "category": [
        {
          "coding": [
            {
              "system": "http://terminology.hl7.org/CodeSystem/observation-category",
              "code": "vital-signs"
            }
          ]
        }
      ],
      "code": {
        "coding": [
          {
            "system": "urn:oid:1.2.208.176.2.1",
            "code": "NPU21692",
            "display": "Puls;Hjerte"
          },
          {
            "system": "urn:iso:std:iso:11073:10101",
            "code": "149546",
            "display": "MDC_PULS_RATE_NON_INV"
          },
          {
            "system": "http://loinc.org",
            "code": "8867-4",
            "display": "Heart rate"
          }
        ],
        "text": "MDC_PULS_RATE_NON_INV: BP heart rate"
      },
      "identifier": [
        {
          "system": "urn:ietf:rfc:3986",
          "value": "e9f05b64-f0cf-46cc-a6d2-e99547e291d6"
        }
      ],
      "permittedDataType": ["Quantity"],
      "quantitativeDetails": {
        "unit": {
          "coding": [
            {
              "system": "http://unitsofmeasure.org",
              "code": "{beats}/min",
              "display": "bpm"
            }
          ],
          "text": "bpm"
        }
      }
    },
    {
      "resourceType": "DeviceDefinition",
      "id": "deviceTemperature",
      "type": {
        "coding": [
          {
            "system": "urn:iso:std:iso:11073:10101",
            "code": "528392"
          }
        ],
        "text": "MDC_DEV_SPEC_PROFILE_TEMP: Thermometer"
      }
    },
    {
      "resourceType": "ObservationDefinition",
      "id": "obsdefTemperature",
      "extension": [
        {
          "url": "https://issuetracker4s.atlassian.net/wiki/spaces/FHIRReg/pages/186744833/ObservationDefinition+url+extension",
          "valueUri": "canonical://uuid/ObservationDefinition/26c4be55-f609-4afd-83a2-48d22a2a7578"
        },
        {
          "url": "https://issuetracker4s.atlassian.net/wiki/spaces/FHIRReg/pages/197066753/ObservationDefinition+version+extension",
          "valueString": "1.0.0"
        },
        {
          "url": "https://issuetracker4s.atlassian.net/wiki/spaces/FHIRReg/pages/100466693/ObservationDefinition+dataEntryMethod+extension",
          "valueCoding": {
            "system": "https://issuetracker4s.atlassian.net/wiki/spaces/FHIRReg/pages/100728837/ObservationDefinition+dataEntryMethod+coding+system",
            "code": "manual",
            "display": "Manuel indtastning"
          }
        },
        {
          "url": "https://issuetracker4s.atlassian.net/wiki/spaces/FHIRReg/pages/291897345/ObservationDefinition+derivedFromCanonical+extension",
          "valueCanonical": "canonical://uuid/ObservationDefinition/377d2c0f-b32d-44a5-a956-19c5a41d9caf|1.0.0"
        },
        {
          "url": "https://issuetracker4s.atlassian.net/wiki/spaces/FHIRReg/pages/321945601/ObservationDefinition+observationProfile",
          "valueCanonical": "http://hl7.org/fhir/StructureDefinition/bodytemp"
        }
      ],
      "category": [
        {
          "coding": [
            {
              "system": "http://terminology.hl7.org/CodeSystem/observation-category",
              "code": "vital-signs"
            }
          ]
        }
      ],
      "code": {
        "coding": [
          {
            "system": "urn:oid:1.2.208.176.2.1",
            "code": "NPU08676",
            "display": "Legeme temp.;Pt"
          },
          {
            "system": "urn:iso:std:iso:11073:10101",
            "code": "150364",
            "display": "MDC_TEMP_BODY"
          },
          {
            "system": "http://loinc.org",
            "code": "8310-5",
            "display": "Body temperature"
          }
        ],
        "text": "MDC_TEMP_BODY: Body temperature"
      },
      "identifier": [
        {
          "system": "urn:ietf:rfc:3986",
          "value": "26c4be55-f609-4afd-83a2-48d22a2a7578"
        }
      ],
      "permittedDataType": ["Quantity"],
      "quantitativeDetails": {
        "unit": {
          "coding": [
            {
              "system": "http://unitsofmeasure.org",
              "code": "Cel",
              "display": "deg C"
            }
          ],
          "text": "℃"
        }
      }
    }
  ],
  "item": [
    {
      "extension": [
        {
          "url": "https://issuetracker4s.atlassian.net/wiki/spaces/FHIRReg/pages/114720777/Questionnaire+optionalMeasurement",
          "valueReference": {
            "reference": "#deviceBloodpressure",
            "type": "DeviceDefinition"
          }
        }
      ],
      "linkId": "groupBloodpressure",
      "code": [
        {
          "system": "urn:oid:1.2.208.180.42.2.1",
          "code": "BP",
          "display": "Dit blodtryk"
        }
      ],
      "text": "Dit blodtryk",
      "type": "group",
      "item": [
        {
          "extension": [
            {
              "url": "http://hl7.org/fhir/StructureDefinition/questionnaire-unit",
              "valueCoding": {
                "system": "http://unitsofmeasure.org",
                "code": "mm[Hg]",
                "display": "mmHg"
              }
            },
            {
              "url": "https://issuetracker4s.atlassian.net/wiki/spaces/FHIRReg/pages/115539981/Questionnaire+observationDefinition",
              "valueReference": {
                "reference": "#obsdefSystolic"
              }
            }
          ],
          "linkId": "systolic",
          "code": [
            {
              "system": "urn:oid:1.2.208.176.2.1",
              "code": "MCS88019",
              "display": "Blodtryk hjemme systolisk;Arm"
            },
            {
              "system": "http://loinc.org",
              "code": "8480-6",
              "display": "Systolic blood pressure"
            },
            {
              "system": "urn:iso:std:iso:11073:10101",
              "code": "150021",
              "display": "MDC_PRESS_BLD_NONINV_SYS"
            }
          ],
          "text": "Indtast det systoliske blodtryk",
          "type": "quantity"
        },
        {
          "extension": [
            {
              "url": "http://hl7.org/fhir/StructureDefinition/questionnaire-unit",
              "valueCoding": {
                "system": "http://unitsofmeasure.org",
                "code": "mm[Hg]",
                "display": "mmHg"
              }
            },
            {
              "url": "https://issuetracker4s.atlassian.net/wiki/spaces/FHIRReg/pages/115539981/Questionnaire+observationDefinition",
              "valueReference": {
                "reference": "#obsdefDiastolic"
              }
            }
          ],
          "linkId": "diastolic",
          "code": [
            {
              "system": "urn:oid:1.2.208.176.2.1",
              "code": "MCS88020",
              "display": "Blodtryk hjemme diastolisk;Arm"
            },
            {
              "system": "http://loinc.org",
              "code": "8462-4",
              "display": "Diastolic blood pressure"
            },
            {
              "system": "urn:iso:std:iso:11073:10101",
              "code": "150022",
              "display": "MDC_PRESS_BLD_NONINV_DIA"
            }
          ],
          "text": "Indtast det diastoliske blodtryk",
          "type": "quantity"
        },
        {
          "extension": [
            {
              "url": "http://hl7.org/fhir/StructureDefinition/questionnaire-unit",
              "valueCoding": {
                "system": "http://unitsofmeasure.org",
                "code": "{beats}/min",
                "display": "bpm"
              }
            },
            {
              "url": "https://issuetracker4s.atlassian.net/wiki/spaces/FHIRReg/pages/115539981/Questionnaire+observationDefinition",
              "valueReference": {
                "reference": "#obsdefPulse"
              }
            }
          ],
          "linkId": "bloodpressurePulse",
          "code": [
            {
              "system": "urn:oid:1.2.208.176.2.1",
              "code": "NPU21692",
              "display": "Puls;Hjerte"
            },
            {
              "system": "http://loinc.org",
              "code": "8867-4",
              "display": "Heart rate"
            },
            {
              "system": "urn:iso:std:iso:11073:10101",
              "code": "149546",
              "display": "MDC_PULS_RATE_NON_INV"
            }
          ],
          "text": "Indtast din puls",
          "type": "quantity"
        }
      ]
    },
    {
      "linkId": "hasHighPulse",
      "text": "Er det højere end vanligt? ",
      "type": "boolean",
      "enableWhen": [
        {
          "question": "bloodpressurePulse",
          "operator": ">=",
          "answerQuantity": {
            "value": 85,
            "unit": "{beats}/min",
            "system": "http://unitsofmeasure.org",
            "code": "{beats}/min"
          }
        }
      ]
    },
    {
      "extension": [
        {
          "url": "https://issuetracker4s.atlassian.net/wiki/spaces/FHIRReg/pages/114720777/Questionnaire+optionalMeasurement",
          "valueReference": {
            "reference": "#deviceTemperature",
            "type": "DeviceDefinition"
          }
        }
      ],
      "linkId": "groupTemperature",
      "code": [
        {
          "system": "urn:oid:1.2.208.180.42.2.1",
          "code": "BodyTemp",
          "display": "Din temperatur"
        }
      ],
      "text": "Din temperatur",
      "type": "group",
      "item": [
        {
          "extension": [
            {
              "url": "http://hl7.org/fhir/StructureDefinition/questionnaire-unit",
              "valueCoding": {
                "system": "http://unitsofmeasure.org",
                "code": "Cel",
                "display": "deg C"
              }
            },
            {
              "url": "https://issuetracker4s.atlassian.net/wiki/spaces/FHIRReg/pages/115539981/Questionnaire+observationDefinition",
              "valueReference": {
                "reference": "#obsdefTemperature"
              }
            }
          ],
          "linkId": "temperature",
          "code": [
            {
              "system": "urn:oid:1.2.208.176.2.1",
              "code": "NPU08676",
              "display": "Legeme temp.;Pt"
            },
            {
              "system": "urn:iso:std:iso:11073:10101",
              "code": "150364",
              "display": "MDC_TEMP_BODY"
            },
            {
              "system": "http://loinc.org",
              "code": "8310-5",
              "display": "Body temperature"
            }
          ],
          "text": "Mål din temperatur med et termometer og indtast resultatet her",
          "type": "quantity"
        }
      ]
    },
    {
      "linkId": "hasHighTemperatur",
      "text": "Er det højere end vanligt?",
      "type": "boolean",
      "enableWhen": [
        {
          "question": "temperature",
          "operator": ">=",
          "answerQuantity": {
            "value": 37.5,
            "unit": "Cel",
            "system": "http://unitsofmeasure.org",
            "code": "Cel"
          }
        }
      ]
    },
    {
      "linkId": "uterusSore",
      "text": "Er din mave/livmoder øm?",
      "type": "boolean"
    },
    {
      "linkId": "braxtonHicksContractions",
      "text": "Har du plukkeveer",
      "type": "boolean"
    },
    {
      "linkId": "hasBraxtonHicksContractions",
      "text": "Flere end vanligt?",
      "type": "boolean",
      "enableWhen": [
        {
          "question": "braxtonHicksContractions",
          "operator": "=",
          "answerBoolean": true
        }
      ]
    },
    {
      "linkId": "weightSensation",
      "text": "Har du tyngdefornemmelse",
      "type": "boolean"
    },
    {
      "linkId": "hasWeightSensation",
      "text": "Mere end vanligt? ",
      "type": "boolean",
      "enableWhen": [
        {
          "question": "weightSensation",
          "operator": "=",
          "answerBoolean": true
        }
      ]
    },
    {
      "linkId": "pastWeek26",
      "text": "Er du over uge 26? ",
      "type": "boolean"
    },
    {
      "linkId": "childMoving",
      "text": "Bevæger barnet sig som det plejer? ",
      "type": "boolean",
      "enableWhen": [
        {
          "question": "pastWeek26",
          "operator": "=",
          "answerBoolean": true
        }
      ]
    },
    {
      "linkId": "callMidwife",
      "type": "display",
      "text": "Ring til Jordemor",
      "enableWhen": [
        {
          "question": "uterusSore",
          "operator": "=",
          "answerBoolean": true
        },
        {
          "question": "hasBraxtonHicksContractions",
          "operator": "=",
          "answerBoolean": true
        },
        {
          "question": "hasWeightSensation",
          "operator": "=",
          "answerBoolean": true
        },
        {
          "question": "hasHighTemperatur",
          "operator": "=",
          "answerBoolean": true
        },
        {
          "question": "childMoving",
          "operator": "=",
          "answerBoolean": false
        },
        {
          "question": "hasHighPulse",
          "operator": "=",
          "answerBoolean": false
        }
      ],
      "enableBehavior": "any"
    }
  ]
}
