{
    "resourceType": "PlanDefinition",
    "meta": {
      "profile": ["http://example.com/StructureDefinition/plandefinition"]
    },
    "extension": [{
      "url": "https://issuetracker4s.atlassian.net/wiki/spaces/FHIRReg/pages/100433923/PlanDefinition+managingOrganization+extension",
      "valueReference": {
        "identifier": {
          "system": "urn:oid:1.2.208.176.1.1",
          "value": "423191000016003"
        },
        "type": "Organization"
      }
    }],
    "url": "canonical://uuid/PlanDefinition/cadf735c-acf4-49c6-b092-fe3127bf18b0",
    "identifier": [
      {
        "system": "urn:ietf:rfc:3986",
        "value": "cadf735c-acf4-49c6-b092-fe3127bf18b0"
      }
    ],
    "version": "1.0.0",
    "title": "Tiligere FM",
    "status": "active",
    "description": "Sårbar anamnese",  
    "jurisdiction": [{
      "coding": [
        {
          "system": "urn:oid:1.2.208.176.1.1",
          "code": "391201000016000",
          "display": "Region Midtjylland"
        }
      ],
      "text": "Region Midtjylland"
    }],
    "action": []
  }