{
    "resourceType": "PlanDefinition",
    "meta": {
      "profile": ["http://example.com/StructureDefinition/plandefinition"]
    },
    "extension": [{
      "url": "https://issuetracker4s.atlassian.net/wiki/spaces/FHIRReg/pages/100433923/PlanDefinition+managingOrganization+extension",
      "valueReference": {
        "identifier": {
          "system": "urn:oid:1.2.208.176.1.1",
          "value": "423191000016003"
        },
        "type": "Organization"
      }
    },
    {
      "url": "https://issuetracker4s.atlassian.net/wiki/spaces/FHIRReg/pages/100466689/PlanDefinition+threshold+extension",
      "valueReference": {
        "reference": "#thresholdSetBloodpressure"
      }
    },
    {
      "url": "https://issuetracker4s.atlassian.net/wiki/spaces/FHIRReg/pages/100466689/PlanDefinition+threshold+extension",
      "valueReference": {
        "reference": "#thresholdSetPulse"
      }
    },
    {
      "url": "https://issuetracker4s.atlassian.net/wiki/spaces/FHIRReg/pages/100466689/PlanDefinition+threshold+extension",
      "valueReference": {
        "reference": "#thresholdSetProtein"
      }
    }],
    "url": "canonical://uuid/PlanDefinition/18576a6a-7497-4a35-9bb1-12f843d02cd7",
    "identifier": [
      {
        "system": "urn:ietf:rfc:3986",
        "value": "18576a6a-7497-4a35-9bb1-12f843d02cd7"
      }
    ],
    "version": "1.0.0",
    "title": "Uspecificeret kompliceret graviditet",
    "status": "active",
    "description": "",
    "jurisdiction": [{
      "coding": [
        {
          "system": "urn:oid:1.2.208.176.1.1",
          "code": "391201000016000",
          "display": "Region Midtjylland"
        }
      ],
      "text": "Region Midtjylland"
    }],
    "contained": [
      {
        "resourceType": "Basic",
        "id": "thresholdSetPulse",
        "extension": [
          {
            "url": "https://issuetracker4s.atlassian.net/wiki/spaces/FHIRReg/pages/100499511/ThresholdSet+version+extension",
            "valueString": "1.0.0"
          },
          {
            "url": "https://issuetracker4s.atlassian.net/wiki/spaces/FHIRReg/pages/100433991/ThresholdSet+status+extension",
            "valueCode": "active"
          },
          {
            "url": "https://issuetracker4s.atlassian.net/wiki/spaces/FHIRReg/pages/100433995/ThresholdSet+approvalDate+extension",
            "valueDateTime": "2019-03-28T13:05:03+01:00"
          },
          {
            "url": "https://issuetracker4s.atlassian.net/wiki/spaces/FHIRReg/pages/100728906/ThresholdSet+appliesTo+extension",
            "valueCanonical": "canonical://uuid/ObservationDefinition/e9f05b64-f0cf-46cc-a6d2-e99547e291d6|1.0.0"
          },
          {
            "url": "https://issuetracker4s.atlassian.net/wiki/spaces/FHIRReg/pages/100499515/ThresholdSet+threshold+extension",
            "extension": [
              {
                "url": "https://issuetracker4s.atlassian.net/wiki/spaces/FHIRReg/pages/110460929/ThresholdSet+type+extension",
                "valueCodeableConcept": {
                  "coding": [
                    {
                      "system": "https://issuetracker4s.atlassian.net/wiki/spaces/FHIRReg/pages/100728891/ThresholdSet+type+coding+system",
                      "code": "pathological",
                      "display": "Pathological threshold"
                    }
                  ],
                  "text": "Pathological threshold"
                }
              },
              {
                "url": "https://issuetracker4s.atlassian.net/wiki/spaces/FHIRReg/pages/100728921/ThresholdSet+effectiveWhen+extension",
                "extension": [
                  {
                    "url": "https://issuetracker4s.atlassian.net/wiki/spaces/FHIRReg/pages/110460983/ThresholdSet+valueQuantity+extension",
                    "valueQuantity": {
                      "value": 105,
                      "system": "http://unitsofmeasure.org",
                      "code": "{beats}/min"
                    }
                  },
                  {
                    "url": "https://issuetracker4s.atlassian.net/wiki/spaces/FHIRReg/pages/100499530/ThresholdSet+operator+extension",
                    "valueCode": ">"
                  }
                ]
              },
              {
                "url": "https://issuetracker4s.atlassian.net/wiki/spaces/FHIRReg/pages/100728931/ThresholdSet+effectiveBehavior+extension",
                "valueCode": "any"
              }
            ]
          },
          {
            "url": "https://issuetracker4s.atlassian.net/wiki/spaces/FHIRReg/pages/100499515/ThresholdSet+threshold+extension",
            "extension": [
              {
                "url": "https://issuetracker4s.atlassian.net/wiki/spaces/FHIRReg/pages/110460929/ThresholdSet+type+extension",
                "valueCodeableConcept": {
                  "coding": [
                    {
                      "system": "https://issuetracker4s.atlassian.net/wiki/spaces/FHIRReg/pages/100728891/ThresholdSet+type+coding+system",
                      "code": "abnormal",
                      "display": "Abnormal threshold"
                    }
                  ],
                  "text": "Abnormal threshold"
                }
              },
              {
                "url": "https://issuetracker4s.atlassian.net/wiki/spaces/FHIRReg/pages/100728921/ThresholdSet+effectiveWhen+extension",
                "extension": [
                  {
                    "url": "https://issuetracker4s.atlassian.net/wiki/spaces/FHIRReg/pages/110460983/ThresholdSet+valueQuantity+extension",
                    "valueQuantity": {
                      "value": 85,
                      "system": "http://unitsofmeasure.org",
                      "code": "{beats}/min"
                    }
                  },
                  {
                    "url": "https://issuetracker4s.atlassian.net/wiki/spaces/FHIRReg/pages/100499530/ThresholdSet+operator+extension",
                    "valueCode": ">"
                  }
                ]
              },
              {
                "url": "https://issuetracker4s.atlassian.net/wiki/spaces/FHIRReg/pages/100728931/ThresholdSet+effectiveBehavior+extension",
                "valueCode": "any"
              }
            ]
          },
          {
            "url": "https://issuetracker4s.atlassian.net/wiki/spaces/FHIRReg/pages/100499515/ThresholdSet+threshold+extension",
            "extension": [
              {
                "url": "https://issuetracker4s.atlassian.net/wiki/spaces/FHIRReg/pages/110460929/ThresholdSet+type+extension",
                "valueCodeableConcept": {
                  "coding": [
                    {
                      "system": "https://issuetracker4s.atlassian.net/wiki/spaces/FHIRReg/pages/100728891/ThresholdSet+type+coding+system",
                      "code": "normal",
                      "display": "Normal threshold"
                    }
                  ],
                  "text": "Normal threshold"
                }
              },
              {
                "url": "https://issuetracker4s.atlassian.net/wiki/spaces/FHIRReg/pages/100728921/ThresholdSet+effectiveWhen+extension",
                "extension": [
                  {
                    "url": "https://issuetracker4s.atlassian.net/wiki/spaces/FHIRReg/pages/110460983/ThresholdSet+valueQuantity+extension",
                    "valueQuantity": {
                      "value": 0,
                      "system": "http://unitsofmeasure.org",
                      "code": "{beats}/min"
                    }
                  },
                  {
                    "url": "https://issuetracker4s.atlassian.net/wiki/spaces/FHIRReg/pages/100499530/ThresholdSet+operator+extension",
                    "valueCode": ">"
                  }
                ]
              },
              {
                "url": "https://issuetracker4s.atlassian.net/wiki/spaces/FHIRReg/pages/100728921/ThresholdSet+effectiveWhen+extension",
                "extension": [
                  {
                    "url": "https://issuetracker4s.atlassian.net/wiki/spaces/FHIRReg/pages/110460983/ThresholdSet+valueQuantity+extension",
                    "valueQuantity": {
                      "value": 85,
                      "system": "http://unitsofmeasure.org",
                      "code": "{beats}/min"
                    }
                  },
                  {
                    "url": "https://issuetracker4s.atlassian.net/wiki/spaces/FHIRReg/pages/100499530/ThresholdSet+operator+extension",
                    "valueCode": "<"
                  }
                ]
              },
              {
                "url": "https://issuetracker4s.atlassian.net/wiki/spaces/FHIRReg/pages/100728931/ThresholdSet+effectiveBehavior+extension",
                "valueCode": "any"
              }
            ]
          }
        ],
        "identifier": [
          {
            "system": "urn:ietf:rfc:3986",
            "value": "2b3dfcb1-0312-4248-a437-49c63ccb1c7e"
          }
        ],
        "code": {
          "coding": [
            {
              "system": "https://issuetracker4s.atlassian.net/wiki/spaces/FHIRReg/pages/100728935/Custom+FHIR+Resources+coding+system",
              "code": "thresholdset",
              "display": "ThresholdSet"
            }
          ],
          "text": "ThresholdSet"
        }
      },
      {
        "resourceType": "Basic",
        "id": "thresholdSetBloodpressure",
        "extension": [
          {
            "url": "https://issuetracker4s.atlassian.net/wiki/spaces/FHIRReg/pages/100499511/ThresholdSet+version+extension",
            "valueString": "1.0.0"
          },
          {
            "url": "https://issuetracker4s.atlassian.net/wiki/spaces/FHIRReg/pages/100433991/ThresholdSet+status+extension",
            "valueCode": "active"
          },
          {
            "url": "https://issuetracker4s.atlassian.net/wiki/spaces/FHIRReg/pages/100433995/ThresholdSet+approvalDate+extension",
            "valueDateTime": "2020-05-26T08:06:00+01:00"
          },
          {
            "url": "https://issuetracker4s.atlassian.net/wiki/spaces/FHIRReg/pages/100728906/ThresholdSet+appliesTo+extension",
            "valueCanonical": "canonical://uuid/ObservationDefinition/8b4d3f08-066b-483a-a659-0bb87dd40e21|1.0.0"
          },
          {
            "url": "https://issuetracker4s.atlassian.net/wiki/spaces/FHIRReg/pages/100499515/ThresholdSet+threshold+extension",
            "extension": [
              {
                "url": "https://issuetracker4s.atlassian.net/wiki/spaces/FHIRReg/pages/110460929/ThresholdSet+type+extension",
                "valueCodeableConcept": {
                  "coding": [
                    {
                      "system": "https://issuetracker4s.atlassian.net/wiki/spaces/FHIRReg/pages/100728891/ThresholdSet+type+coding+system",
                      "code": "pathological",
                      "display": "Pathological threshold"
                    }
                  ],
                  "text": "Pathological threshold"
                }
              },
              {
                "url": "https://issuetracker4s.atlassian.net/wiki/spaces/FHIRReg/pages/100728921/ThresholdSet+effectiveWhen+extension",
                "extension": [
                  {
                    "url": "https://issuetracker4s.atlassian.net/wiki/spaces/FHIRReg/pages/100728925/ThresholdSet+component+extension",
                    "valueCoding": {
                      "system": "urn:iso:std:iso:11073:10101",
                      "code": "150021",
                      "display": "MDC_PRESS_BLD_NONINV_SYS"
                    }
                  },
                  {
                    "url": "https://issuetracker4s.atlassian.net/wiki/spaces/FHIRReg/pages/110460983/ThresholdSet+valueQuantity+extension",
                    "valueQuantity": {
                      "value": 150,
                      "system": "http://unitsofmeasure.org",
                      "code": "mm[Hg]"
                    }
                  },
                  {
                    "url": "https://issuetracker4s.atlassian.net/wiki/spaces/FHIRReg/pages/100499530/ThresholdSet+operator+extension",
                    "valueCode": ">"
                  }
                ]
              },
              {
                "url": "https://issuetracker4s.atlassian.net/wiki/spaces/FHIRReg/pages/100728921/ThresholdSet+effectiveWhen+extension",
                "extension": [
                  {
                    "url": "https://issuetracker4s.atlassian.net/wiki/spaces/FHIRReg/pages/100728925/ThresholdSet+component+extension",
                    "valueCoding": {
                      "system": "urn:iso:std:iso:11073:10101",
                      "code": "150022",
                      "display": "MDC_PRESS_BLD_NONINV_DIA"
                    }
                  },
                  {
                    "url": "https://issuetracker4s.atlassian.net/wiki/spaces/FHIRReg/pages/110460983/ThresholdSet+valueQuantity+extension",
                    "valueQuantity": {
                      "value": 100,
                      "system": "http://unitsofmeasure.org",
                      "code": "mm[Hg]"
                    }
                  },
                  {
                    "url": "https://issuetracker4s.atlassian.net/wiki/spaces/FHIRReg/pages/100499530/ThresholdSet+operator+extension",
                    "valueCode": ">"
                  }
                ]
              },
              {
                "url": "https://issuetracker4s.atlassian.net/wiki/spaces/FHIRReg/pages/100728931/ThresholdSet+effectiveBehavior+extension",
                "valueCode": "any"
              }
            ]
          },
          {
            "url": "https://issuetracker4s.atlassian.net/wiki/spaces/FHIRReg/pages/100499515/ThresholdSet+threshold+extension",
            "extension": [
              {
                "url": "https://issuetracker4s.atlassian.net/wiki/spaces/FHIRReg/pages/110460929/ThresholdSet+type+extension",
                "valueCodeableConcept": {
                  "coding": [
                    {
                      "system": "https://issuetracker4s.atlassian.net/wiki/spaces/FHIRReg/pages/100728891/ThresholdSet+type+coding+system",
                      "code": "abnormal",
                      "display": "Abnormal threshold"
                    }
                  ],
                  "text": "Abnormal threshold"
                }
              },
              {
                "url": "https://issuetracker4s.atlassian.net/wiki/spaces/FHIRReg/pages/100728921/ThresholdSet+effectiveWhen+extension",
                "extension": [
                  {
                    "url": "https://issuetracker4s.atlassian.net/wiki/spaces/FHIRReg/pages/100728925/ThresholdSet+component+extension",
                    "valueCoding": {
                      "system": "urn:iso:std:iso:11073:10101",
                      "code": "150021",
                      "display": "MDC_PRESS_BLD_NONINV_SYS"
                    }
                  },
                  {
                    "url": "https://issuetracker4s.atlassian.net/wiki/spaces/FHIRReg/pages/110460983/ThresholdSet+valueQuantity+extension",
                    "valueQuantity": {
                      "value": 140,
                      "system": "http://unitsofmeasure.org",
                      "code": "mm[Hg]"
                    }
                  },
                  {
                    "url": "https://issuetracker4s.atlassian.net/wiki/spaces/FHIRReg/pages/100499530/ThresholdSet+operator+extension",
                    "valueCode": ">"
                  }
                ]
              },
              {
                "url": "https://issuetracker4s.atlassian.net/wiki/spaces/FHIRReg/pages/100728921/ThresholdSet+effectiveWhen+extension",
                "extension": [
                  {
                    "url": "https://issuetracker4s.atlassian.net/wiki/spaces/FHIRReg/pages/100728925/ThresholdSet+component+extension",
                    "valueCoding": {
                      "system": "urn:iso:std:iso:11073:10101",
                      "code": "150022",
                      "display": "MDC_PRESS_BLD_NONINV_DIA"
                    }
                  },
                  {
                    "url": "https://issuetracker4s.atlassian.net/wiki/spaces/FHIRReg/pages/110460983/ThresholdSet+valueQuantity+extension",
                    "valueQuantity": {
                      "value": 90,
                      "system": "http://unitsofmeasure.org",
                      "code": "mm[Hg]"
                    }
                  },
                  {
                    "url": "https://issuetracker4s.atlassian.net/wiki/spaces/FHIRReg/pages/100499530/ThresholdSet+operator+extension",
                    "valueCode": ">"
                  }
                ]
              },
              {
                "url": "https://issuetracker4s.atlassian.net/wiki/spaces/FHIRReg/pages/100728931/ThresholdSet+effectiveBehavior+extension",
                "valueCode": "any"
              }
            ]
          },
          {
            "url": "https://issuetracker4s.atlassian.net/wiki/spaces/FHIRReg/pages/100499515/ThresholdSet+threshold+extension",
            "extension": [
              {
                "url": "https://issuetracker4s.atlassian.net/wiki/spaces/FHIRReg/pages/110460929/ThresholdSet+type+extension",
                "valueCodeableConcept": {
                  "coding": [
                    {
                      "system": "https://issuetracker4s.atlassian.net/wiki/spaces/FHIRReg/pages/100728891/ThresholdSet+type+coding+system",
                      "code": "normal",
                      "display": "Normal threshold"
                    }
                  ],
                  "text": "Normal threshold"
                }
              },
              {
                "url": "https://issuetracker4s.atlassian.net/wiki/spaces/FHIRReg/pages/100728921/ThresholdSet+effectiveWhen+extension",
                "extension": [
                  {
                    "url": "https://issuetracker4s.atlassian.net/wiki/spaces/FHIRReg/pages/100728925/ThresholdSet+component+extension",
                    "valueCoding": {
                      "system": "urn:iso:std:iso:11073:10101",
                      "code": "150021",
                      "display": "MDC_PRESS_BLD_NONINV_SYS"
                    }
                  },
                  {
                    "url": "https://issuetracker4s.atlassian.net/wiki/spaces/FHIRReg/pages/110460983/ThresholdSet+valueQuantity+extension",
                    "valueQuantity": {
                      "value": 0,
                      "system": "http://unitsofmeasure.org",
                      "code": "mm[Hg]"
                    }
                  },
                  {
                    "url": "https://issuetracker4s.atlassian.net/wiki/spaces/FHIRReg/pages/100499530/ThresholdSet+operator+extension",
                    "valueCode": ">"
                  }
                ]
              },
              {
                "url": "https://issuetracker4s.atlassian.net/wiki/spaces/FHIRReg/pages/100728921/ThresholdSet+effectiveWhen+extension",
                "extension": [
                  {
                    "url": "https://issuetracker4s.atlassian.net/wiki/spaces/FHIRReg/pages/100728925/ThresholdSet+component+extension",
                    "valueCoding": {
                      "system": "urn:iso:std:iso:11073:10101",
                      "code": "150021",
                      "display": "MDC_PRESS_BLD_NONINV_SYS"
                    }
                  },
                  {
                    "url": "https://issuetracker4s.atlassian.net/wiki/spaces/FHIRReg/pages/110460983/ThresholdSet+valueQuantity+extension",
                    "valueQuantity": {
                      "value": 140,
                      "system": "http://unitsofmeasure.org",
                      "code": "mm[Hg]"
                    }
                  },
                  {
                    "url": "https://issuetracker4s.atlassian.net/wiki/spaces/FHIRReg/pages/100499530/ThresholdSet+operator+extension",
                    "valueCode": "<"
                  }
                ]
              },
              {
                "url": "https://issuetracker4s.atlassian.net/wiki/spaces/FHIRReg/pages/100728921/ThresholdSet+effectiveWhen+extension",
                "extension": [
                  {
                    "url": "https://issuetracker4s.atlassian.net/wiki/spaces/FHIRReg/pages/100728925/ThresholdSet+component+extension",
                    "valueCoding": {
                      "system": "urn:iso:std:iso:11073:10101",
                      "code": "150022",
                      "display": "MDC_PRESS_BLD_NONINV_DIA"
                    }
                  },
                  {
                    "url": "https://issuetracker4s.atlassian.net/wiki/spaces/FHIRReg/pages/110460983/ThresholdSet+valueQuantity+extension",
                    "valueQuantity": {
                      "value": 0,
                      "system": "http://unitsofmeasure.org",
                      "code": "mm[Hg]"
                    }
                  },
                  {
                    "url": "https://issuetracker4s.atlassian.net/wiki/spaces/FHIRReg/pages/100499530/ThresholdSet+operator+extension",
                    "valueCode": ">"
                  }
                ]
              },
              {
                "url": "https://issuetracker4s.atlassian.net/wiki/spaces/FHIRReg/pages/100728921/ThresholdSet+effectiveWhen+extension",
                "extension": [
                  {
                    "url": "https://issuetracker4s.atlassian.net/wiki/spaces/FHIRReg/pages/100728925/ThresholdSet+component+extension",
                    "valueCoding": {
                      "system": "urn:iso:std:iso:11073:10101",
                      "code": "150022",
                      "display": "MDC_PRESS_BLD_NONINV_DIA"
                    }
                  },
                  {
                    "url": "https://issuetracker4s.atlassian.net/wiki/spaces/FHIRReg/pages/110460983/ThresholdSet+valueQuantity+extension",
                    "valueQuantity": {
                      "value": 90,
                      "system": "http://unitsofmeasure.org",
                      "code": "mm[Hg]"
                    }
                  },
                  {
                    "url": "https://issuetracker4s.atlassian.net/wiki/spaces/FHIRReg/pages/100499530/ThresholdSet+operator+extension",
                    "valueCode": "<"
                  }
                ]
              },
              {
                "url": "https://issuetracker4s.atlassian.net/wiki/spaces/FHIRReg/pages/100728931/ThresholdSet+effectiveBehavior+extension",
                "valueCode": "any"
              }
            ]
          }
        ],
        "identifier": [
          {
            "system": "urn:ietf:rfc:3986",
            "value": "2b3dfcb1-0312-4248-a437-49c63ccb1c7e"
          }
        ],
        "code": {
          "coding": [
            {
              "system": "https://issuetracker4s.atlassian.net/wiki/spaces/FHIRReg/pages/100728935/Custom+FHIR+Resources+coding+system",
              "code": "thresholdset",
              "display": "ThresholdSet"
            }
          ],
          "text": "ThresholdSet"
        }
      },
      {
        "resourceType": "Basic",
        "id": "thresholdSetProtein",
        "extension": [
          {
            "url": "https://issuetracker4s.atlassian.net/wiki/spaces/FHIRReg/pages/100499511/ThresholdSet+version+extension",
            "valueString": "1.0.0"
          },
          {
            "url": "https://issuetracker4s.atlassian.net/wiki/spaces/FHIRReg/pages/100433991/ThresholdSet+status+extension",
            "valueCode": "active"
          },
          {
            "url": "https://issuetracker4s.atlassian.net/wiki/spaces/FHIRReg/pages/100433995/ThresholdSet+approvalDate+extension",
            "valueDateTime": "2019-03-28T13:05:03+01:00"
          },
          {
            "url": "https://issuetracker4s.atlassian.net/wiki/spaces/FHIRReg/pages/100728906/ThresholdSet+appliesTo+extension",
            "valueCanonical": "canonical://uuid/ObservationDefinition/2f273eb9-1ab6-4c48-967f-ca9ec4bcd9b3|1.0.0"
          },
          {
            "url": "https://issuetracker4s.atlassian.net/wiki/spaces/FHIRReg/pages/100499515/ThresholdSet+threshold+extension",
            "extension": [
              {
                "url": "https://issuetracker4s.atlassian.net/wiki/spaces/FHIRReg/pages/110460929/ThresholdSet+type+extension",
                "valueCodeableConcept": {
                  "coding": [
                    {
                      "system": "https://issuetracker4s.atlassian.net/wiki/spaces/FHIRReg/pages/100728891/ThresholdSet+type+coding+system",
                      "code": "pathological",
                      "display": "Pathological threshold"
                    }
                  ],
                  "text": "Pathological threshold"
                }
              },
              {
                "url": "https://issuetracker4s.atlassian.net/wiki/spaces/FHIRReg/pages/100728921/ThresholdSet+effectiveWhen+extension",
                "extension": [
                  {
                    "url": "https://issuetracker4s.atlassian.net/wiki/spaces/FHIRReg/pages/110460983/ThresholdSet+valueQuantity+extension",
                    "valueQuantity": {
                      "value": 2,
                      "system": "http://unitsofmeasure.org",
                      "code": "mg/dL"
                    }
                  },
                  {
                    "url": "https://issuetracker4s.atlassian.net/wiki/spaces/FHIRReg/pages/100499530/ThresholdSet+operator+extension",
                    "valueCode": ">"
                  }
                ]
              },
              {
                "url": "https://issuetracker4s.atlassian.net/wiki/spaces/FHIRReg/pages/100728931/ThresholdSet+effectiveBehavior+extension",
                "valueCode": "any"
              }
            ]
          },
          {
            "url": "https://issuetracker4s.atlassian.net/wiki/spaces/FHIRReg/pages/100499515/ThresholdSet+threshold+extension",
            "extension": [
              {
                "url": "https://issuetracker4s.atlassian.net/wiki/spaces/FHIRReg/pages/110460929/ThresholdSet+type+extension",
                "valueCodeableConcept": {
                  "coding": [
                    {
                      "system": "https://issuetracker4s.atlassian.net/wiki/spaces/FHIRReg/pages/100728891/ThresholdSet+type+coding+system",
                      "code": "abnormal",
                      "display": "Abnormal threshold"
                    }
                  ],
                  "text": "Abnormal threshold"
                }
              },
              {
                "url": "https://issuetracker4s.atlassian.net/wiki/spaces/FHIRReg/pages/100728921/ThresholdSet+effectiveWhen+extension",
                "extension": [
                  {
                    "url": "https://issuetracker4s.atlassian.net/wiki/spaces/FHIRReg/pages/110460983/ThresholdSet+valueQuantity+extension",
                    "valueQuantity": {
                      "value": 1,
                      "system": "http://unitsofmeasure.org",
                      "code": "mg/dL"
                    }
                  },
                  {
                    "url": "https://issuetracker4s.atlassian.net/wiki/spaces/FHIRReg/pages/100499530/ThresholdSet+operator+extension",
                    "valueCode": ">"
                  }
                ]
              },
              {
                "url": "https://issuetracker4s.atlassian.net/wiki/spaces/FHIRReg/pages/100728931/ThresholdSet+effectiveBehavior+extension",
                "valueCode": "any"
              }
            ]
          },
          {
            "url": "https://issuetracker4s.atlassian.net/wiki/spaces/FHIRReg/pages/100499515/ThresholdSet+threshold+extension",
            "extension": [
              {
                "url": "https://issuetracker4s.atlassian.net/wiki/spaces/FHIRReg/pages/110460929/ThresholdSet+type+extension",
                "valueCodeableConcept": {
                  "coding": [
                    {
                      "system": "https://issuetracker4s.atlassian.net/wiki/spaces/FHIRReg/pages/100728891/ThresholdSet+type+coding+system",
                      "code": "normal",
                      "display": "Normal threshold"
                    }
                  ],
                  "text": "Normal threshold"
                }
              },
              {
                "url": "https://issuetracker4s.atlassian.net/wiki/spaces/FHIRReg/pages/100728921/ThresholdSet+effectiveWhen+extension",
                "extension": [
                  {
                    "url": "https://issuetracker4s.atlassian.net/wiki/spaces/FHIRReg/pages/110460983/ThresholdSet+valueQuantity+extension",
                    "valueQuantity": {
                      "value": 0,
                      "system": "http://unitsofmeasure.org",
                      "code": "mg/dL"
                    }
                  },
                  {
                    "url": "https://issuetracker4s.atlassian.net/wiki/spaces/FHIRReg/pages/100499530/ThresholdSet+operator+extension",
                    "valueCode": ">"
                  }
                ]
              },
              {
                "url": "https://issuetracker4s.atlassian.net/wiki/spaces/FHIRReg/pages/100728921/ThresholdSet+effectiveWhen+extension",
                "extension": [
                  {
                    "url": "https://issuetracker4s.atlassian.net/wiki/spaces/FHIRReg/pages/110460983/ThresholdSet+valueQuantity+extension",
                    "valueQuantity": {
                      "value": 1,
                      "system": "http://unitsofmeasure.org",
                      "code": "mg/dL"
                    }
                  },
                  {
                    "url": "https://issuetracker4s.atlassian.net/wiki/spaces/FHIRReg/pages/100499530/ThresholdSet+operator+extension",
                    "valueCode": "<"
                  }
                ]
              },
              {
                "url": "https://issuetracker4s.atlassian.net/wiki/spaces/FHIRReg/pages/100728931/ThresholdSet+effectiveBehavior+extension",
                "valueCode": "any"
              }
            ]
          }
        ],
        "identifier": [
          {
            "system": "urn:ietf:rfc:3986",
            "value": "2b3dfcb1-0312-4248-a437-49c63ccb1c7e"
          }
        ],
        "code": {
          "coding": [
            {
              "system": "https://issuetracker4s.atlassian.net/wiki/spaces/FHIRReg/pages/100728935/Custom+FHIR+Resources+coding+system",
              "code": "thresholdset",
              "display": "ThresholdSet"
            }
          ],
          "text": "ThresholdSet"
        }
      },
      {
        "resourceType": "ObservationDefinition",
        "id": "obsdefProtein",
        "extension": [
          {
            "url": "https://issuetracker4s.atlassian.net/wiki/spaces/FHIRReg/pages/186744833/ObservationDefinition+url+extension",
            "valueUri": "canonical://uuid/ObservationDefinition/2f273eb9-1ab6-4c48-967f-ca9ec4bcd9b3"
          },
          {
            "url": "https://issuetracker4s.atlassian.net/wiki/spaces/FHIRReg/pages/197066753/ObservationDefinition+version+extension",
            "valueString": "1.0.0"
          },
          {
            "url": "https://issuetracker4s.atlassian.net/wiki/spaces/FHIRReg/pages/100466693/ObservationDefinition+dataEntryMethod+extension",
            "valueCoding": {
              "system": "https://issuetracker4s.atlassian.net/wiki/spaces/FHIRReg/pages/100728837/ObservationDefinition+dataEntryMethod+coding+system",
              "code": "manual",
              "display": "Manuel indtastning"
            }
          },
          {
            "url": "https://issuetracker4s.atlassian.net/wiki/spaces/FHIRReg/pages/291897345/ObservationDefinition+derivedFromCanonical+extension",
            "valueCanonical": "canonical://uuid/ObservationDefinition/54ea24c5-9255-4930-97ce-baadae863e33|1.0.0"
          }
        ],
        "code": {
          "coding": [
            {
              "system": "urn:oid:1.2.208.176.2.1",
              "code": "NPU03958",
              "display": "Protein;U"
            },
            {
              "system": "urn:iso:std:iso:11073:10101",
              "code": "160244",
              "display": "MDC_CONC_PROTEIN_URINE"
            }
          ],
          "text": "MDC_CONC_PROTEIN_URINE: Concentration of protein in urine"
        },
        "identifier": [
          {
            "system": "urn:ietf:rfc:3986",
            "value": "2f273eb9-1ab6-4c48-967f-ca9ec4bcd9b3"
          }
        ],
        "permittedDataType": ["Quantity"],
        "quantitativeDetails": {
          "unit": {
            "coding": [
              {
                "system": "http://unitsofmeasure.org",
                "code": "mg/dL",
                "display": "mg/dl"
              }
            ],
            "text": "mg/dl"
          }
        }
      },
      {
        "resourceType": "ObservationDefinition",
        "id": "obsdefSystolic",
        "extension": [
          {
            "url": "https://issuetracker4s.atlassian.net/wiki/spaces/FHIRReg/pages/186744833/ObservationDefinition+url+extension",
            "valueUri": "canonical://uuid/ObservationDefinition/4707b7e7-44fa-4ef5-a04a-f1c1b486df46"
          },
          {
            "url": "https://issuetracker4s.atlassian.net/wiki/spaces/FHIRReg/pages/197066753/ObservationDefinition+version+extension",
            "valueString": "1.0.0"
          },
          {
            "url": "https://issuetracker4s.atlassian.net/wiki/spaces/FHIRReg/pages/100466693/ObservationDefinition+dataEntryMethod+extension",
            "valueCoding": {
              "system": "https://issuetracker4s.atlassian.net/wiki/spaces/FHIRReg/pages/100728837/ObservationDefinition+dataEntryMethod+coding+system",
              "code": "manual",
              "display": "Manuel indtastning"
            }
          },
          {
            "url": "https://issuetracker4s.atlassian.net/wiki/spaces/FHIRReg/pages/291897345/ObservationDefinition+derivedFromCanonical+extension",
            "valueCanonical": "canonical://uuid/ObservationDefinition/3d45297d-a858-4b3e-b68c-da9523c1e173|1.0.0"
          }
        ],
        "code": {
          "coding": [
            {
              "system": "urn:oid:1.2.208.176.2.1",
              "code": "MCS88019",
              "display": "Blodtryk hjemme systolisk;Arm"
            },
            {
              "system": "urn:iso:std:iso:11073:10101",
              "code": "150021",
              "display": "MDC_PRESS_BLD_NONINV_SYS"
            },
            {
              "system": "http://loinc.org",
              "code": "8480-6",
              "display": "Systolic blood pressure"
            }
          ],
          "text": "MDC_PRESS_BLD_NONINV_SYS: Systolic blood pressure"
        },
        "identifier": [
          {
            "system": "urn:ietf:rfc:3986",
            "value": "4707b7e7-44fa-4ef5-a04a-f1c1b486df46"
          }
        ],
        "permittedDataType": ["Quantity"],
        "quantitativeDetails": {
          "unit": {
            "coding": [
              {
                "system": "http://unitsofmeasure.org",
                "code": "mm[Hg]",
                "display": "mmHg"
              }
            ],
            "text": "mmHg"
          }
        }
      },
      {
        "resourceType": "ObservationDefinition",
        "id": "obsdefPulse",
        "extension": [
          {
            "url": "https://issuetracker4s.atlassian.net/wiki/spaces/FHIRReg/pages/186744833/ObservationDefinition+url+extension",
            "valueUri": "canonical://uuid/ObservationDefinition/e9f05b64-f0cf-46cc-a6d2-e99547e291d6"
          },
          {
            "url": "https://issuetracker4s.atlassian.net/wiki/spaces/FHIRReg/pages/197066753/ObservationDefinition+version+extension",
            "valueString": "1.0.0"
          },
          {
            "url": "https://issuetracker4s.atlassian.net/wiki/spaces/FHIRReg/pages/100466693/ObservationDefinition+dataEntryMethod+extension",
            "valueCoding": {
              "system": "https://issuetracker4s.atlassian.net/wiki/spaces/FHIRReg/pages/100728837/ObservationDefinition+dataEntryMethod+coding+system",
              "code": "manual",
              "display": "Manuel indtastning"
            }
          },
          {
            "url": "https://issuetracker4s.atlassian.net/wiki/spaces/FHIRReg/pages/291897345/ObservationDefinition+derivedFromCanonical+extension",
            "valueCanonical": "canonical://uuid/ObservationDefinition/2a2ed5a5-5e0c-4af2-8ed9-ad9535094ee5|1.0.0"
          },
          {
            "url": "https://issuetracker4s.atlassian.net/wiki/spaces/FHIRReg/pages/321945601/ObservationDefinition+observationProfile",
            "valueCanonical": "http://hl7.org/fhir/StructureDefinition/heartrate"
          }
        ],
        "category": [
          {
            "coding": [
              {
                "system": "http://terminology.hl7.org/CodeSystem/observation-category",
                "code": "vital-signs"
              }
            ]
          }
        ],
        "code": {
          "coding": [
            {
              "system": "urn:oid:1.2.208.176.2.1",
              "code": "NPU21692",
              "display": "Puls;Hjerte"
            },
            {
              "system": "urn:iso:std:iso:11073:10101",
              "code": "149546",
              "display": "MDC_PULS_RATE_NON_INV"
            },
            {
              "system": "http://loinc.org",
              "code": "8867-4",
              "display": "Heart rate"
            }
          ],
          "text": "MDC_PULS_RATE_NON_INV: BP heart rate"
        },
        "identifier": [
          {
            "system": "urn:ietf:rfc:3986",
            "value": "e9f05b64-f0cf-46cc-a6d2-e99547e291d6"
          }
        ],
        "permittedDataType": ["Quantity"],
        "quantitativeDetails": {
          "unit": {
            "coding": [
              {
                "system": "http://unitsofmeasure.org",
                "code": "{beats}/min",
                "display": "bpm"
              }
            ],
            "text": "bpm"
          }
        }
      },
      {
        "resourceType": "ObservationDefinition",
        "id": "obsdefDiastolic",
        "extension": [
          {
            "url": "https://issuetracker4s.atlassian.net/wiki/spaces/FHIRReg/pages/186744833/ObservationDefinition+url+extension",
            "valueUri": "canonical://uuid/ObservationDefinition/5f9b29bc-10e5-494d-a9f3-ae32581e308e"
          },
          {
            "url": "https://issuetracker4s.atlassian.net/wiki/spaces/FHIRReg/pages/197066753/ObservationDefinition+version+extension",
            "valueString": "1.0.0"
          },
          {
            "url": "https://issuetracker4s.atlassian.net/wiki/spaces/FHIRReg/pages/100466693/ObservationDefinition+dataEntryMethod+extension",
            "valueCoding": {
              "system": "https://issuetracker4s.atlassian.net/wiki/spaces/FHIRReg/pages/100728837/ObservationDefinition+dataEntryMethod+coding+system",
              "code": "manual",
              "display": "Manuel indtastning"
            }
          },
          {
            "url": "https://issuetracker4s.atlassian.net/wiki/spaces/FHIRReg/pages/291897345/ObservationDefinition+derivedFromCanonical+extension",
            "valueCanonical": "canonical://uuid/ObservationDefinition/550375a4-3e22-4ee1-be73-c19964a8d014|1.0.0"
          }
        ],
        "code": {
          "coding": [
            {
              "system": "urn:oid:1.2.208.176.2.1",
              "code": "MCS88020",
              "display": "Blodtryk hjemme diastolisk;Arm"
            },
            {
              "system": "urn:iso:std:iso:11073:10101",
              "code": "150022",
              "display": "MDC_PRESS_BLD_NONINV_DIA"
            },
            {
              "system": "http://loinc.org",
              "code": "8462-4",
              "display": "Diastolic blood pressure"
            }
          ],
          "text": "MDC_PRESS_BLD_NONINV_DIA: Diastolic blood pressure"
        },
        "identifier": [
          {
            "system": "urn:ietf:rfc:3986",
            "value": "5f9b29bc-10e5-494d-a9f3-ae32581e308e"
          }
        ],
        "permittedDataType": ["Quantity"],
        "quantitativeDetails": {
          "unit": {
            "coding": [
              {
                "system": "http://unitsofmeasure.org",
                "code": "mm[Hg]",
                "display": "mmHg"
              }
            ],
            "text": "mmHg"
          }
        }
      }
    ],
    "action": []
  }