{
  "resourceType": "CarePlan",
  "meta": {
    "profile": ["http://example.com/StructureDefinition/careplan"]
  },
  "contained": [
    {
      "resourceType": "Task",
      "id": "task1",
      "status": "requested", 
      "intent": "order", 
      "authoredOn": "2017-06-25T13:22:11+01:00",
      "lastModified": "2017-06-27T08:30:26+01:00",
      "input": [
        {
          "type": {
            "coding": [
              {
                "system": "http://hl7.org/fhir/resource-types",
                "code": "Questionnaire",
                "display": "Questionnaire"
              }
            ],
            "text": "Questionnaire"
          },
          "valueCanonical": "canonical://uuid/Questionnaire/720441d9-727c-4be4-8d2a-8d43838158d4|1.0.0"
        }
      ]
    },
    {
      "resourceType": "Basic",
      "id": "thresholdSet1",
      "identifier": [
        {
          "system": "urn:ietf:rfc:3986",
          "value": "2b3dfcb1-0312-4248-a437-49c63ccb1c7e"
        }
      ],
      "meta": {
        "profile": ["http://example.com/StructureDefinition/thresholdset"]
      },
      "extension": [{
        "url": "https://issuetracker4s.atlassian.net/wiki/spaces/FHIRReg/pages/100499511/ThresholdSet+version+extension",
        "valueString": "1.0.0"
      }, 
      {
        "url": "https://issuetracker4s.atlassian.net/wiki/spaces/FHIRReg/pages/100433991/ThresholdSet+status+extension",
        "valueCode": "active"
      }, 
      {
        "url": "https://issuetracker4s.atlassian.net/wiki/spaces/FHIRReg/pages/100433995/ThresholdSet+approvalDate+extension",
        "valueDateTime": "2019-03-28T13:05:03+01:00"
      }, 
      {
        "url": "https://issuetracker4s.atlassian.net/wiki/spaces/FHIRReg/pages/100565062/ThresholdSet+approvingPractitioner+extension",
        "valueReference": {
          "type": "Practitioner",
          "identifier": {
            "system": "https://stps.dk/da/sundhedsprofessionelle-og-myndigheder/autorisationsregister/autorisationsid/",
            "value": "55GT7"
          }
        }
      },
      {
        "url": "https://issuetracker4s.atlassian.net/wiki/spaces/FHIRReg/pages/100728906/ThresholdSet+appliesTo+extension",
        "valueCanonical": "canonical://uuid/Questionnaire/720441d9-727c-4be4-8d2a-8d43838158d4|1.0.0"
      }, 
      {
        "url": "https://issuetracker4s.atlassian.net/wiki/spaces/FHIRReg/pages/100499515/ThresholdSet+threshold+extension",
        "extension": [{
          "url": "https://issuetracker4s.atlassian.net/wiki/spaces/FHIRReg/pages/110460929/ThresholdSet+type+extension",
          "valueCodeableConcept": {
            "coding": [{
              "system": "https://issuetracker4s.atlassian.net/wiki/spaces/FHIRReg/pages/100728891/ThresholdSet+type+coding+system",
              "code": "pathological",
              "display": "Pathological threshold"
            }],
            "text": "Pathological threshold"
          }
        }, 
        {
          "url": "https://issuetracker4s.atlassian.net/wiki/spaces/FHIRReg/pages/100728921/ThresholdSet+effectiveWhen+extension",
          "extension": [{
            "url": "https://issuetracker4s.atlassian.net/wiki/spaces/FHIRReg/pages/100728925/ThresholdSet+component+extension",
            "valueCoding": {
              "system": "https://issuetracker4s.atlassian.net/wiki/spaces/FHIRReg/pages/100433987/ThresholdSet+component+coding+system",
              "code": "systolic"
            }
          }, 
          {
            "url": "https://issuetracker4s.atlassian.net/wiki/spaces/FHIRReg/pages/100565090/ThresholdSet+value+extension",
            "valueInteger": 140
          }, 
          {
            "url": "https://issuetracker4s.atlassian.net/wiki/spaces/FHIRReg/pages/100499530/ThresholdSet+operator+extension",
            "valueCode": ">"
          }]
        }, 
        {
          "url": "https://issuetracker4s.atlassian.net/wiki/spaces/FHIRReg/pages/100728931/ThresholdSet+effectiveBehavior+extension",
          "valueCode": "any"
        }]
      }],
      "code": {
        "coding": [{
          "system": "https://issuetracker4s.atlassian.net/wiki/spaces/FHIRReg/pages/100728935/Custom+FHIR+Resources+coding+system",
          "code": "thresholdset",
          "display": "ThresholdSet"
        }],
        "text": "ThresholdSet"
      }
    }
  ],
  "extension": [
    {
      "url": "https://issuetracker4s.atlassian.net/wiki/spaces/FHIRReg/pages/100728833/CarePlan+thresholdset+extension",
      "valueReference": {
        "reference": "#thresholdSet1"
      }
    }
  ],
  "identifier": [
    {
      "system": "urn:ietf:rfc:3986",
      "value": "de67e5c1-494a-41b9-924d-4c613b076a73"
    },
    {
      "system": "https://example.com/brugsaftale-service",
      "value": "ad7de410-3c15-4f77-8d6f-d95b3a7b4a4b"
    }
  ],
  "instantiatesCanonical": [
    "canonical://uuid/PlanDefinition/d1347528-4b1e-400a-88c9-a5b0f842a36b|1.0.0"
  ],
  "status": "active",
  "intent": "order",
  "title": "PPROM behandlingsplan",
  "subject": {
    "identifier": {
      "system": "urn:oid:1.2.208.176.1.2",
      "value": "2512489996"
    },
    "type": "Patient"
  },
  "period": {
    "start": "2017-11-27"
  },
  "created": "2017-11-27T13:05:00.000Z",
  "author": {
    "identifier": {
      "system": "urn:oid:1.2.208.176.1.1",
      "value": "453191000016003"
    },
    "type": "Organization"
  },
  "activity": [
    {
      "reference": {
        "reference": "#task1",
        "type": "Task"
      }
    }
  ]
}
