{
  "resourceType": "Organization",
  "identifier": [
    {
      "system": "urn:oid:1.2.208.176.1.1",
      "value": "453191000016003"
    }
  ],
  "type": [
    {
      "coding": [
        {
          "system": "http://sor.sundhedsstyrelsen.dsdn.dk/lookupdata/#EntityTypes",
          "code": "klinisk enhed",
          "display": "Klinisk enhed"
        }
      ],
      "text": "Klinisk enhed"
    }
  ],
  "active": true,
  "name": "Kvindesygdomme og Fødsler",
  "telecom": [
    {
      "system": "phone",
      "value": "78450000",
      "use": "work",
      "period": {
        "start": "2012-03-15"
      }
    }
  ],
  "address": [
    {
      "use": "work",
      "type": "postal",
      "line": [
        "Aarhus Universitetshospital",
        "Palle Juul-Jensens Boulevard 99"
      ],
      "city": "Aarhus N",
      "postalCode": "8200",
      "country": "DNK",
      "period": {
        "start": "2012-03-15"
      }
    }
  ],
  "alias": "Aarhus Universitetshospital->Kvindesygdomme og Fødsler",
  "partOf": {
    "identifier": {
      "system": "urn:oid:1.2.208.176.1.1",
      "value": "404261000016009"
    },
    "type": "Organization"
  }
}