{
  "resourceType": "PractitionerRole",
  "identifier": [
    {
      "system": "urn:ietf:rfc:3986",
      "value": "79bd3605-e5f7-49ff-b813-06befb9c036b"
    }
  ],
  "active": true,
  "period": {
    "start": "2017-02-01"
  },
  "practitioner": {
    "identifier": {
      "system": "https://stps.dk/da/sundhedsprofessionelle-og-myndigheder/autorisationsregister/autorisationsid/",
      "value": "55GT7"  
    },
    "type": "Practitioner"
  },
  "organization": {
    "identifier":  {
      "system": "urn:oid:1.2.208.176.1.1",
      "value": "453191000016003"
    },
    "type": "Organization"
  }
}