{
  "resourceType": "PlanDefinition",
  "meta": {
    "profile": ["http://example.com/StructureDefinition/plandefinition"]
  },
  "extension": [
    {
      "url": "https://issuetracker4s.atlassian.net/wiki/spaces/FHIRReg/pages/100433923/PlanDefinition+managingOrganization+extension",
      "valueReference": {
        "identifier": {
          "system": "urn:oid:1.2.208.176.1.1",
          "value": "453191000016003"
        },
        "type": "Organization"
      }
    }
  ],
  "url": "canonical://uuid/PlanDefinition/8fb81aba-3beb-4e8c-a7fa-f56a937ccbf4",
  "identifier": [
    {
      "system": "urn:ietf:rfc:3986",
      "value": "8fb81aba-3beb-4e8c-a7fa-f56a937ccbf4"
    }
  ],
  "version": "1.0.0",
  "title": "Præeklampsi",
  "status": "active",
  "description": "Preterm premature rupture intervention",
  "useContext": [
    {
      "code": {
        "system": "http://terminology.hl7.org/CodeSystem/usage-context-type",
        "code": "focus",
        "display": "Clinicial Focus"
      },
      "valueCodeableConcept": {
        "coding": [
          {
            "system": "http://hl7.org/fhir/sid/icd-10",
            "code": "O42.91",
            "display": "Preterm premature rupture of membranes, unspecified as to length of time between rupture and onset of labor"
          }
        ],
        "text": "Preterm premature rupture of membranes, unspecified as to length of time between rupture and onset of labor"
      }
    }
  ],

  "jurisdiction": [
    {
      "coding": [
        {
          "system": "urn:oid:1.2.208.176.1.1",
          "code": "6081000016005",
          "display": "Region Midtjylland"
        }
      ],
      "text": "Region Midtjylland"
    }
  ],
  "action": [
    {
      "definitionCanonical": "canonical://uuid/Questionnaire/720441d9-727c-4be4-8d2a-8d43838158d4|1.0.0",
      "code": [
        {
          "coding": [
            {
              "system": "http://example.org/fhir/codesystem-careplan-action-type",
              "code": "questionnaire",
              "display": "Questionnaire"
            }
          ],
          "text": "Questionnaire"
        }
      ]
    }
  ]
}
