{
	"resourceType": "Bundle",
	"type": "transaction",
	"entry": [
		{
			"request": {
				"method": "POST",
				"url": "Patient",
				"ifNoneExist": "identifier=urn:ietf:rfc:3986|urn:uuid:c3a7ca02-cf8f-4fb1-a381-d446165b526f"
			},
			"fullUrl": "urn:uuid:d474d2a8-9f94-4836-9094-01108864af54",
			"resource": {
				"resourceType": "Patient",
				"identifier": [
					{
						"system": "urn:ietf:rfc:3986",
						"value": "urn:uuid:c3a7ca02-cf8f-4fb1-a381-d446165b526f"
					}
				]
			}
		},
		{
			"request": {
				"method": "POST",
				"url": "Observation",
				"ifNoneExist": "identifier=urn:ietf:rfc:3986|urn:uuid:51b7bd5e-9dc7-471b-b96b-097b0a9badb6"
			},
			"fullUrl": "urn:uuid:e840e696-b88e-41fe-9f9d-b969cae51c52",
			"resource": {
				"resourceType": "Observation",
				"identifier": [
					{
						"system": "urn:ietf:rfc:3986",
						"value": "urn:uuid:51b7bd5e-9dc7-471b-b96b-097b0a9badb6"
					}
				],
				"basedOn": [
					{
						"identifier": {
							"system": "urn:ietf:rfc:3986",
							"value": "urn:uuid:cfd665b2-9ba9-44fc-9931-bd971039ea3b"
						},
						"type": "CarePlan"
					}
				],
				"status": "registered",
				"code": {
					"coding": [
						{
							"system": "http://snomed.info/sct",
							"code": "443394008",
							"display": "score på visuel analog smerteskala"
						}
					],
					"text": "Smertescore (VAS)"
				},
				"subject": {
					"reference": "urn:uuid:d474d2a8-9f94-4836-9094-01108864af54",
					"type": "Patient"
				},
				"performer": [
					{
						"reference": "urn:uuid:d474d2a8-9f94-4836-9094-01108864af54",
						"type": "Patient"
					}
				],
				"effectiveDateTime": "2018-10-09T20:35:02+02:00",
				"valueInteger": 7
			}
		},
		{
			"request": {
				"method": "POST",
				"url": "Observation",
				"ifNoneExist": "identifier=urn:ietf:rfc:3986|urn:uuid:f803aa2b-c6af-4419-b463-b6bfcabb689e \n"
			},
			"fullUrl": "urn:uuid:e3d7a4349-d755-4620-9c96-3b646885bd20",
			"resource": {
				"resourceType": "Observation",
				"identifier": [
					{
						"system": "urn:ietf:rfc:3986",
						"value": "urn:uuid:f803aa2b-c6af-4419-b463-b6bfcabb689e \n"
					}
				],
				"basedOn": [
					{
						"identifier": {
							"system": "urn:ietf:rfc:3986",
							"value": "urn:uuid:cfd665b2-9ba9-44fc-9931-bd971039ea3b"
						},
						"type": "CarePlan"
					}
				],
				"status": "registered",
				"code": {
					"coding": [
						{
							"system": "https://example.com/system-to-be-defined",
							"code": "mood-vas-score",
							"display": "score på visuel analog humørskala"
						}
					],
					"text": "Humørscore (VAS)"
				},
				"subject": {
					"reference": "urn:uuid:d474d2a8-9f94-4836-9094-01108864af54",
					"type": "Patient"
				},
				"performer": [
					{
						"reference": "urn:uuid:d474d2a8-9f94-4836-9094-01108864af54",
						"type": "Patient"
					}
				],
				"effectiveDateTime": "2018-10-09T20:35:02+02:00",
				"valueInteger": 4
			}
		}
	]
}