{
  "resourceType": "Device",
  "id": "58-08.C3",
  "identifier": [
    {
      "system": "https://sens.dk/",
      "value": "58-08.C3"
    }
  ],
  "manufacturer": "SENS Innovation ApS",
  "deviceName": [
    {
      "name": "SENS motion",
      "type": "user-friendly-name"
    }
  ],
  "type": {
    "coding": [
      {
        "system": "urn:iso:std:iso:11073:10101",
        "code": "528425",
        "display": "MDC_DEV_SUB_SPEC_PROFILE_ACTIVITY"
      }
    ]
  },
  "specialization": [
    {
      "systemType": {
        "coding": [
          {
            "system": "https://issuetracker4s.atlassian.net/wiki/spaces/FHIRReg/pages/589266949/DeviceHardwareType",
            "code": "IMU",
            "display": "inertial-measurement-unit"
          }
        ],
        "text": "Device Hardware Type"
      }
    }
  ],
  "patient": {
    "identifier": {
      "system": "urn:ietf:rfc:3986",
      "value": "urn:uuid:c3a7ca02-cf8f-4fb1-a381-d446165b526f"
    },
    "type": "Patient"
  }
}
