{
  "resourceType": "Observation",
  "identifier": [
    {
      "system": "urn:ietf:rfc:3986",
      "value": "urn:uuid:51b7bd5e-9dc7-471b-b96b-097b0a9badb6"
    }
  ],
  "basedOn": [
    {
      "identifier": {
        "system": "urn:ietf:rfc:3986",
        "value": "urn:uuid:cfd665b2-9ba9-44fc-9931-bd971039ea3b"
      },
      "type": "CarePlan"
    }
  ],
  "status": "registered",
  "code": {
    "coding": [
      {
        "system": "http://snomed.info/sct",
        "code": "443394008",
        "display": "score på visuel analog smerteskala"
      }
    ],
    "text": "Smertescore (VAS)"
  },
  "subject": {
    "type": "Patient",
    "identifier": {
      "system": "urn:ietf:rfc:3986",
      "value": "5e257df3-de53-4350-a116-5368d04b1539"
    }
  },
  "performer": [
    {
      "type": "Patient",
      "identifier": {
        "system": "urn:ietf:rfc:3986",
        "value": "5e257df3-de53-4350-a116-5368d04b1539"
      }
    }
  ],
  "effectiveDateTime": "2018-10-09T20:35:02+02:00",
  "valueInteger": 7
}
