{
  "resourceType": "ObservationDefinition",
  "meta": {
    "profile": ["https://issuetracker4s.atlassian.net/wiki/spaces/FDM/pages/47382723/FHIR+ObservationDefinition"]
  },
  "identifier": [{
    "system": "urn:ietf:rfc:3986",
    "value": "34924c9f-ed4d-41f0-b6a0-8e9534b359ba"
  }],
  "extension": [
    {
      "url": "https://issuetracker4s.atlassian.net/wiki/spaces/FHIRReg/pages/186744833/ObservationDefinition+url+extension",
      "valueUri": "canonical://uuid/ObservationDefinition/34924c9f-ed4d-41f0-b6a0-8e9534b359ba"
    },
    {
      "url": "https://issuetracker4s.atlassian.net/wiki/spaces/FHIRReg/pages/197066753/ObservationDefinition+version+extension",
      "valueString": "1.0.0"
    },
    {
      "url": "https://issuetracker4s.atlassian.net/wiki/spaces/FHIRReg/pages/321945601/ObservationDefinition+observationProfile",
      "valueCanonical": "http://hl7.org/fhir/StructureDefinition/heartrate"
    }
  ],
  "code": {
    "coding": [{
      "system" : "urn:oid:1.2.208.176.2.1",
      "code" : "NPU21692",
      "display" : "Puls;Hjerte"
    },{
      "system": "urn:iso:std:iso:11073:10101",
      "code": "149530",
      "display": "MDC_PULS_OXIM_PULS_RATE"
    },{
      "system": "http://loinc.org",
      "code": "8867-4",
      "display": "Heart rate"
    }],
    "text": "MDC_PULS_OXIM_PULS_RATE: Pulse oximeter heart rate"
  },
  "category": [{
    "coding": [{
      "system": "http://terminology.hl7.org/CodeSystem/observation-category",
      "code": "vital-signs"
    }]
  }], 
  "permittedDataType": ["Quantity"],
  "quantitativeDetails": {
    "unit": {
      "coding": [{
        "system": "http://unitsofmeasure.org",
        "code": "{beats}/min",
        "display": "bpm"
      }],
      "text": "bpm"
    }
  }
}
