{
  "resourceType": "Questionnaire",
  "url": "canonical://uuid/Questionnaire/f1b5004f-16a1-4c8b-b7c0-6134038df324",
  "identifier": [
    {
      "system": "urn:ietf:rfc:3986",
      "value": "f1b5004f-16a1-4c8b-b7c0-6134038df324"
    }
  ],
  "version": "1",
  "meta": {
    "profile": [
      "https://issuetracker4s.atlassian.net/wiki/spaces/FHIRReg/pages/116064285/Questionnaire+MeasurementsRequests"
    ]
  },
  "language": "da-DK",
  "title": "Diverse spørgsmål om målinger",
  "status": "active",
  "date": "2020-03-09T15:15:03+01:00",
  "extension": [
    {
      "url": "https://issuetracker4s.atlassian.net/wiki/spaces/FHIRReg/pages/100565032/Questionnaire+managingOrganization+extension",
      "valueReference": {
        "identifier": {
          "system": "urn:oid:1.2.208.176.1.1",
          "value": "238881000016000"
        },
        "type": "Organization"
      }
    }
  ],
  "subjectType": [
    "Patient"
  ],
  "contained": [
    {
      "resourceType": "DeviceDefinition",
      "id": "devdef1",
      "meta": {
        "profile": [
          "https://issuetracker4s.atlassian.net/wiki/spaces/FDM/pages/47448096/FHIR+DeviceDefinition"
        ]
      },
      "type": { 
        "coding": [
          {
            "system": "urn:iso:std:iso:11073:10101",
            "code": "528399"
          }
        ],
        "text": "MDC_DEV_SPEC_PROFILE_SCALE: Weight Scale"
      }
    },
    {
      "resourceType": "DeviceDefinition",
      "id": "devdef2",
      "meta": {
        "profile": [
          "https://issuetracker4s.atlassian.net/wiki/spaces/FDM/pages/47448096/FHIR+DeviceDefinition"
        ]
      },
      "type": {
        "coding": [
          {
            "system": "urn:iso:std:iso:11073:10101",
            "code": "528391"
          }
        ],
        "text": "MDC_DEV_SPEC_PROFILE_BP: Blood Pressure Monitor"
      }
    },
    {
      "resourceType": "DeviceDefinition",
      "id": "devdef3",
      "meta": {
        "profile": [
          "https://issuetracker4s.atlassian.net/wiki/spaces/FDM/pages/47448096/FHIR+DeviceDefinition"
        ]
      },
      "type": {
        "coding": [
          {
            "system": "urn:iso:std:iso:11073:10101",
            "code": "585728"
          }
        ],
        "text": "MDC_DEV_PLACEHOLDER_SPEC_PROFILE_CTG: Cardiotocograph"
      },
      "manufacturerString": "Monica Healthcare",
      "modelNumber": "AN24V1",
      "property": [
        {
          "type": {
            "coding": [
              {
                "system": "urn:iso:std:iso:11073:10101",
                "code": "8450054"
              }
            ],
            "text": "MDC_CTG_PLACEHOLDER_PATIENT_STATUS: Patient status"
          },
          "valueCode": [
            {
              "coding": [
                {
                  "system": "urn:iso:std:iso:11073:10101",
                  "code": "8450055"
                }
              ],
              "text": "MDC_CTG_PLACEHOLDER_PATIENT_STATUS_ANTENATAL: Antenatal"
            }
          ]
        }
      ]
    },
    {
      "resourceType": "ObservationDefinition",
      "id": "obsdef1",
      "identifier": [{
        "system": "urn:ietf:rfc:3986",
        "value": "aaea9b52-3084-4cdc-872d-5928695d67a6"
      }],
      "meta": {
        "profile": [
          "https://issuetracker4s.atlassian.net/wiki/spaces/FDM/pages/47382723/FHIR+ObservationDefinition"
        ]
      },
      "extension": [
        {
          "url": "https://issuetracker4s.atlassian.net/wiki/spaces/FHIRReg/pages/100466693/ObservationDefinition+dataEntryMethod+extension",
          "valueCoding": {
            "code": "both",
            "system": "https://issuetracker4s.atlassian.net/wiki/spaces/FHIRReg/pages/100728837/ObservationDefinition+dataEntryMethod+coding+system",
            "display": "Enhver metode"
          }
        },
        {
          "url": "https://issuetracker4s.atlassian.net/wiki/spaces/FHIRReg/pages/291897345/ObservationDefinition+derivedFromCanonical+extension",
          "valueCanonical": "canonical://uuid/ObservationDefinition/6186479b-f7cc-42f8-aa7f-2ecfc048f426|1.0.0"
        },
        {
          "url": "https://issuetracker4s.atlassian.net/wiki/spaces/FHIRReg/pages/321945601/ObservationDefinition+observationProfile",
          "valueCanonical": "http://hl7.org/fhir/StructureDefinition/bodyweight"
        },
        {
          "url": "https://issuetracker4s.atlassian.net/wiki/spaces/FHIRReg/pages/186744833/ObservationDefinition+url+extension",
          "valueUri": "canonical://uuid/ObservationDefinition/aaea9b52-3084-4cdc-872d-5928695d67a6"
        },
        {
          "url": "https://issuetracker4s.atlassian.net/wiki/spaces/FHIRReg/pages/197066753/ObservationDefinition+version+extension",
          "valueString": "1.0.0"
        }
      ],
      "code": {
        "coding": [
          {
            "system": "urn:oid:1.2.208.176.2.1",
            "code": "NPU03804",
            "display": "Legeme masse; Pt"
          },
          {
            "system": "urn:iso:std:iso:11073:10101",
            "code": "188736",
            "display": "MDC_MASS_BODY_ACTUAL"
          },
          {
            "system": "http://loinc.org",
            "code": "29463-7",
            "display": "Body weight"
          }
        ],
        "text": "MDC_MASS_BODY_ACTUAL: Body weight"
      },
      "category": [
        {
          "coding": [
            {
              "system": "http://terminology.hl7.org/CodeSystem/observation-category",
              "code": "vital-signs"
            }
          ]
        }
      ],
      "permittedDataType": [
        "Quantity"
      ],
      "quantitativeDetails": {
        "unit": {
          "coding": [
            {
              "system": "http://unitsofmeasure.org",
              "code": "kg",
              "display": "kg"
            }
          ],
          "text": "kg"
        }
      }
    },
    {
      "resourceType": "ObservationDefinition",
      "id": "obsdef2",
      "identifier": [{
        "system": "urn:ietf:rfc:3986",
        "value": "271e0cfc-666f-41f5-b5f1-2ed8f6b6ccc6"
      }],
      "meta": {
        "profile": [
          "https://issuetracker4s.atlassian.net/wiki/spaces/FDM/pages/47382723/FHIR+ObservationDefinition"
        ]
      },
      "extension": [
        {
          "url": "https://issuetracker4s.atlassian.net/wiki/spaces/FHIRReg/pages/100466693/ObservationDefinition+dataEntryMethod+extension",
          "valueCoding": {
            "code": "automatic",
            "system": "https://issuetracker4s.atlassian.net/wiki/spaces/FHIRReg/pages/100728837/ObservationDefinition+dataEntryMethod+coding+system",
            "display": "Automatisk måling"
          }
        },
        {
          "url": "https://issuetracker4s.atlassian.net/wiki/spaces/FHIRReg/pages/291897345/ObservationDefinition+derivedFromCanonical+extension",
          "valueCanonical": "canonical://uuid/ObservationDefinition/8b4d3f08-066b-483a-a659-0bb87dd40e21|1.0.0"
        },
        {
          "url": "https://issuetracker4s.atlassian.net/wiki/spaces/FHIRReg/pages/321945601/ObservationDefinition+observationProfile",
          "valueCanonical": "http://hl7.org/fhir/StructureDefinition/bp"
        },
        {
          "url": "https://issuetracker4s.atlassian.net/wiki/spaces/FHIRReg/pages/324042753/ObservationDefinition+component",
          "extension": [
            {
              "url": "code",
              "valueCodeableConcept": {
                "coding": [
                  {
                    "system": "urn:oid:1.2.208.176.2.1",
                    "code": "MCS88019",
                    "display": "Blodtryk hjemme systolisk;Arm"
                  },
                  {
                    "system": "urn:iso:std:iso:11073:10101",
                    "code": "150021",
                    "display": "MDC_PRESS_BLD_NONINV_SYS"
                  },
                  {
                    "system": "http://loinc.org",
                    "code": "8480-6",
                    "display": "Systolic blood pressure"
                  }
                ],
                "text": "MDC_PRESS_BLD_NONINV_SYS: Systolic blood pressure"
              }
            },
            {
              "url": "permittedDataType",
              "valueCode": "Quantity"
            },
            {
              "url": "quantitativeDetails",
              "extension": [
                {
                  "url": "unit",
                  "valueCodeableConcept": {
                    "coding": [
                      {
                        "system": "http://unitsofmeasure.org",
                        "code": "mm[Hg]",
                        "display": "mmHg"
                      }
                    ],
                    "text": "mmHg"
                  }
                }
              ]
            }
          ]
        },
        {
          "url": "https://issuetracker4s.atlassian.net/wiki/spaces/FHIRReg/pages/324042753/ObservationDefinition+component",
          "extension": [
            {
              "url": "code",
              "valueCodeableConcept": {
                "coding": [
                  {
                    "system": "urn:oid:1.2.208.176.2.1",
                    "code": "MCS88020",
                    "display": "Blodtryk hjemme diastolisk;Arm"
                  },
                  {
                    "system": "urn:iso:std:iso:11073:10101",
                    "code": "150022",
                    "display": "MDC_PRESS_BLD_NONINV_DIA"
                  },
                  {
                    "system": "http://loinc.org",
                    "code": "8462-4",
                    "display": "Diastolic blood pressure"
                  }
                ],
                "text": "MDC_PRESS_BLD_NONINV_DIA: Diastolic blood pressure"
              }
            },
            {
              "url": "permittedDataType",
              "valueCode": "Quantity"
            },
            {
              "url": "quantitativeDetails",
              "extension": [
                {
                  "url": "unit",
                  "valueCodeableConcept": {
                    "coding": [
                      {
                        "system": "http://unitsofmeasure.org",
                        "code": "mm[Hg]",
                        "display": "mmHg"
                      }
                    ],
                    "text": "mmHg"
                  }
                }
              ]
            }
          ]
        },
        {
          "url": "https://issuetracker4s.atlassian.net/wiki/spaces/FHIRReg/pages/186744833/ObservationDefinition+url+extension",
          "valueUri": "canonical://uuid/ObservationDefinition/271e0cfc-666f-41f5-b5f1-2ed8f6b6ccc6"
        },
        {
          "url": "https://issuetracker4s.atlassian.net/wiki/spaces/FHIRReg/pages/197066753/ObservationDefinition+version+extension",
          "valueString": "1.0.0"
        }
      ],
      "code": {
        "coding": [
          {
            "system": "urn:iso:std:iso:11073:10101",
            "code": "150020",
            "display": "MDC_PRESS_BLD_NONINV"
          },
          {
            "system": "http://loinc.org",
            "code": "85354-9",
            "display": "Blood pressure panel"
          }
        ],
        "text": "MDC_PRESS_BLD_NONINV: Blood pressure"
      },
      "category": [
        {
          "coding": [
            {
              "system": "http://terminology.hl7.org/CodeSystem/observation-category",
              "code": "vital-signs"
            }
          ]
        }
      ]
    },
    {
      "resourceType": "ObservationDefinition",
      "id": "obsdef3",
      "identifier": [{
        "system": "urn:ietf:rfc:3986",
        "value": "369d634c-00a2-4395-843b-1dc88c853c19"
      }],
      "meta": {
        "profile": [
          "https://issuetracker4s.atlassian.net/wiki/spaces/FDM/pages/47382723/FHIR+ObservationDefinition"
        ]
      },
      "extension": [
        {
          "url": "https://issuetracker4s.atlassian.net/wiki/spaces/FHIRReg/pages/100466693/ObservationDefinition+dataEntryMethod+extension",
          "valueCoding": {
            "code": "automatic",
            "system": "https://issuetracker4s.atlassian.net/wiki/spaces/FHIRReg/pages/100728837/ObservationDefinition+dataEntryMethod+coding+system",
            "display": "Automatisk måling"
          }
        },
        {
          "url": "https://issuetracker4s.atlassian.net/wiki/spaces/FHIRReg/pages/291897345/ObservationDefinition+derivedFromCanonical+extension",
          "valueCanonical": "canonical://uuid/ObservationDefinition/2a2ed5a5-5e0c-4af2-8ed9-ad9535094ee5|1.0.0"
        },
        {
          "url": "https://issuetracker4s.atlassian.net/wiki/spaces/FHIRReg/pages/321945601/ObservationDefinition+observationProfile",
          "valueCanonical": "http://hl7.org/fhir/StructureDefinition/heartrate"
        },
        {
          "url": "https://issuetracker4s.atlassian.net/wiki/spaces/FHIRReg/pages/186744833/ObservationDefinition+url+extension",
          "valueUri": "canonical://uuid/ObservationDefinition/369d634c-00a2-4395-843b-1dc88c853c19"
        },
        {
          "url": "https://issuetracker4s.atlassian.net/wiki/spaces/FHIRReg/pages/197066753/ObservationDefinition+version+extension",
          "valueString": "1.0.0"
        }
      ],
      "code": {
        "coding": [
          {
            "system": "urn:oid:1.2.208.176.2.1",
            "code": "NPU21692",
            "display": "Puls;Hjerte"
          },
          {
            "system": "urn:iso:std:iso:11073:10101",
            "code": "149546",
            "display": "MDC_PULS_RATE_NON_INV"
          },
          {
            "system": "http://loinc.org",
            "code": "8867-4",
            "display": "Heart rate"
          }
        ],
        "text": "MDC_PULS_RATE_NON_INV: BP heart rate"
      },
      "category": [
        {
          "coding": [
            {
              "system": "http://terminology.hl7.org/CodeSystem/observation-category",
              "code": "vital-signs"
            }
          ]
        }
      ],
      "permittedDataType": [
        "Quantity"
      ],
      "quantitativeDetails": {
        "unit": {
          "coding": [
            {
              "system": "http://unitsofmeasure.org",
              "code": "{beats}/min",
              "display": "bpm"
            }
          ],
          "text": "bpm"
        }
      }
    },
    {
      "resourceType": "ObservationDefinition",
      "id": "obsdef4",
      "identifier": [{
        "system": "urn:ietf:rfc:3986",
        "value": "c96f4779-bfcc-4041-9f49-2565387fca5b"
      }],
      "meta": {
        "profile": [
          "https://issuetracker4s.atlassian.net/wiki/spaces/FDM/pages/47382723/FHIR+ObservationDefinition"
        ]
      },
      "extension": [
        {
          "url": "https://issuetracker4s.atlassian.net/wiki/spaces/FHIRReg/pages/100466693/ObservationDefinition+dataEntryMethod+extension",
          "valueCoding": {
            "code": "automatic",
            "system": "https://issuetracker4s.atlassian.net/wiki/spaces/FHIRReg/pages/100728837/ObservationDefinition+dataEntryMethod+coding+system",
            "display": "Automatisk måling"
          }
        },
        {
          "url": "https://issuetracker4s.atlassian.net/wiki/spaces/FHIRReg/pages/291897345/ObservationDefinition+derivedFromCanonical+extension",
          "valueCanonical": "canonical://uuid/ObservationDefinition/a43f73d6-a10b-4527-a781-977f2096c9c4|1.0.0"
        },
        {
          "url": "https://issuetracker4s.atlassian.net/wiki/spaces/FHIRReg/pages/186744833/ObservationDefinition+url+extension",
          "valueUri": "canonical://uuid/ObservationDefinition/c96f4779-bfcc-4041-9f49-2565387fca5b"
        },
        {
          "url": "https://issuetracker4s.atlassian.net/wiki/spaces/FHIRReg/pages/197066753/ObservationDefinition+version+extension",
          "valueString": "1.0.0"
        }
      ],
      "code": {
        "coding": [
          {
            "system": "urn:iso:std:iso:11073:10101",
            "code": "8450059",
            "display": "MDC_PLACEHOLDER_RECORDING_PANEL_SELF_PERFORMED_CTG"
          }
        ],
        "text": "MDC_PLACEHOLDER_RECORDING_PANEL_SELF_PERFORMED_CTG: Self-performed CTG recording"
      }
    },
    {
      "resourceType": "ObservationDefinition",
      "id": "obsdef5",
      "meta": {
        "profile": [
          "https://issuetracker4s.atlassian.net/wiki/spaces/FDM/pages/47382723/FHIR+ObservationDefinition"
        ]
      },
      "extension": [
        {
          "url": "https://issuetracker4s.atlassian.net/wiki/spaces/FHIRReg/pages/100466693/ObservationDefinition+dataEntryMethod+extension",
          "valueCoding": {
            "code": "manual",
            "system": "https://issuetracker4s.atlassian.net/wiki/spaces/FHIRReg/pages/100728837/ObservationDefinition+dataEntryMethod+coding+system",
            "display": "Manuel indtastning"
          }
        },
        {
          "url": "https://issuetracker4s.atlassian.net/wiki/spaces/FHIRReg/pages/291897345/ObservationDefinition+derivedFromCanonical+extension",
          "valueCanonical": "canonical://uuid/ObservationDefinition/8b4d3f08-066b-483a-a659-0bb87dd40e21|1.0.0"
        },
        {
          "url": "https://issuetracker4s.atlassian.net/wiki/spaces/FHIRReg/pages/321945601/ObservationDefinition+observationProfile",
          "valueCanonical": "http://hl7.org/fhir/StructureDefinition/bp"
        },
        {
          "url": "https://issuetracker4s.atlassian.net/wiki/spaces/FHIRReg/pages/324042753/ObservationDefinition+component",
          "extension": [
            {
              "url": "code",
              "valueCodeableConcept": {
                "coding": [
                  {
                    "system": "urn:oid:1.2.208.176.2.1",
                    "code": "MCS88019",
                    "display": "Blodtryk hjemme systolisk;Arm"
                  },
                  {
                    "system": "urn:iso:std:iso:11073:10101",
                    "code": "150021",
                    "display": "MDC_PRESS_BLD_NONINV_SYS"
                  },
                  {
                    "system": "http://loinc.org",
                    "code": "8480-6",
                    "display": "Systolic blood pressure"
                  }
                ],
                "text": "MDC_PRESS_BLD_NONINV_SYS: Systolic blood pressure"
              }
            },
            {
              "url": "permittedDataType",
              "valueCode": "Quantity"
            },
            {
              "url": "quantitativeDetails",
              "extension": [
                {
                  "url": "unit",
                  "valueCodeableConcept": {
                    "coding": [
                      {
                        "system": "http://unitsofmeasure.org",
                        "code": "mm[Hg]",
                        "display": "mmHg"
                      }
                    ],
                    "text": "mmHg"
                  }
                }
              ]
            }
          ]
        },
        {
          "url": "https://issuetracker4s.atlassian.net/wiki/spaces/FHIRReg/pages/324042753/ObservationDefinition+component",
          "extension": [
            {
              "url": "code",
              "valueCodeableConcept": {
                "coding": [
                  {
                    "system": "urn:oid:1.2.208.176.2.1",
                    "code": "MCS88020",
                    "display": "Blodtryk hjemme diastolisk;Arm"
                  },
                  {
                    "system": "urn:iso:std:iso:11073:10101",
                    "code": "150022",
                    "display": "MDC_PRESS_BLD_NONINV_DIA"
                  },
                  {
                    "system": "http://loinc.org",
                    "code": "8462-4",
                    "display": "Diastolic blood pressure"
                  }
                ],
                "text": "MDC_PRESS_BLD_NONINV_DIA: Diastolic blood pressure"
              }
            },
            {
              "url": "permittedDataType",
              "valueCode": "Quantity"
            },
            {
              "url": "quantitativeDetails",
              "extension": [
                {
                  "url": "unit",
                  "valueCodeableConcept": {
                    "coding": [
                      {
                        "system": "http://unitsofmeasure.org",
                        "code": "mm[Hg]",
                        "display": "mmHg"
                      }
                    ],
                    "text": "mmHg"
                  }
                }
              ]
            }
          ]
        }
      ],
      "code": {
        "coding": [
          {
            "system": "urn:iso:std:iso:11073:10101",
            "code": "150020",
            "display": "MDC_PRESS_BLD_NONINV"
          },
          {
            "system": "http://loinc.org",
            "code": "85354-9",
            "display": "Blood pressure panel"
          }
        ],
        "text": "MDC_PRESS_BLD_NONINV: Blood pressure"
      },
      "category": [
        {
          "coding": [
            {
              "system": "http://terminology.hl7.org/CodeSystem/observation-category",
              "code": "vital-signs"
            }
          ]
        }
      ]
    },
    {
      "resourceType": "ObservationDefinition",
      "id": "obsdef6",
      "meta": {
        "profile": [
          "https://issuetracker4s.atlassian.net/wiki/spaces/FDM/pages/47382723/FHIR+ObservationDefinition"
        ]
      },
      "extension": [
        {
          "url": "https://issuetracker4s.atlassian.net/wiki/spaces/FHIRReg/pages/100466693/ObservationDefinition+dataEntryMethod+extension",
          "valueCoding": {
            "code": "manual",
            "system": "https://issuetracker4s.atlassian.net/wiki/spaces/FHIRReg/pages/100728837/ObservationDefinition+dataEntryMethod+coding+system",
            "display": "Manuel indtastning"
          }
        },
        {
          "url": "https://issuetracker4s.atlassian.net/wiki/spaces/FHIRReg/pages/291897345/ObservationDefinition+derivedFromCanonical+extension",
          "valueCanonical": "canonical://uuid/ObservationDefinition/2a2ed5a5-5e0c-4af2-8ed9-ad9535094ee5|1.0.0"
        },
        {
          "url": "https://issuetracker4s.atlassian.net/wiki/spaces/FHIRReg/pages/321945601/ObservationDefinition+observationProfile",
          "valueCanonical": "http://hl7.org/fhir/StructureDefinition/heartrate"
        }
      ],
      "code": {
        "coding": [
          {
            "system": "urn:oid:1.2.208.176.2.1",
            "code": "NPU21692",
            "display": "Puls;Hjerte"
          },
          {
            "system": "urn:iso:std:iso:11073:10101",
            "code": "149546",
            "display": "MDC_PULS_RATE_NON_INV"
          },
          {
            "system": "http://loinc.org",
            "code": "8867-4",
            "display": "Heart rate"
          }
        ],
        "text": "MDC_PULS_RATE_NON_INV: BP heart rate"
      },
      "category": [
        {
          "coding": [
            {
              "system": "http://terminology.hl7.org/CodeSystem/observation-category",
              "code": "vital-signs"
            }
          ]
        }
      ],
      "permittedDataType": [
        "Quantity"
      ],
      "quantitativeDetails": {
        "unit": {
          "coding": [
            {
              "system": "http://unitsofmeasure.org",
              "code": "{beats}/min",
              "display": "bpm"
            }
          ],
          "text": "bpm"
        }
      }
    }
  ],
  "item": [
    {
      "linkId": "group1",
      "extension": [
        {
          "url": "https://issuetracker4s.atlassian.net/wiki/spaces/FHIRReg/pages/114720777/Questionnaire+optionalMeasurement",
          "valueReference": {
            "reference": "#devdef1"
          }
        }
      ],
      "code": [
        {
          "system": "urn:oid:1.2.208.180.42.2.1",
          "code": "Weight",
          "display": "Din vægt"
        }
      ],
      "text": "Din vægt",
      "type": "group",
      "item": [
        {
          "linkId": "observation1",
          "text": "Vej dig på en badevægt og indtast din vægt her",
          "type": "quantity",
          "code": [
            {
              "system": "urn:oid:1.2.208.176.2.1",
              "code": "NPU03804",
              "display": "Legeme masse; Pt"
            },
            {
              "system": "http://loinc.org",
              "code": "29463-7",
              "display": "Body weight"
            },
            {
              "system": "urn:iso:std:iso:11073:10101",
              "code": "188736",
              "display": "MDC_MASS_BODY_ACTUAL"
            }
          ],
          "extension": [
            {
              "url": "http://hl7.org/fhir/StructureDefinition/questionnaire-unit",
              "valueCoding": {
                "system": "http://unitsofmeasure.org",
                "code": "kg",
                "display": "kg"
              }
            },
            {
              "url": "https://issuetracker4s.atlassian.net/wiki/spaces/FHIRReg/pages/115539981/Questionnaire+observationDefinition",
              "valueReference": {
                "reference": "#obsdef1"
              }
            }
          ]
        }
      ]
    },
    {
      "linkId": "group2",
      "modifierExtension": [
        {
          "url": "https://issuetracker4s.atlassian.net/wiki/spaces/FHIRReg/pages/114720801/Questionnaire+mandatoryMeasurement",
          "valueReference": {
            "reference": "#devdef2"
          }
        }
      ],
      "code": [
        {
          "system": "urn:oid:1.2.208.180.42.2.1",
          "code": "BP",
          "display": "Dit blodtryk"
        }
      ],
      "text": "Dit blodtryk",
      "type": "group",
      "item": [
        {
          "linkId": "observation2",
          "type": "quantity",
          "code": [
            {
              "system": "urn:oid:1.2.208.176.2.1",
              "code": "MCS88019",
              "display": "Blodtryk hjemme systolisk;Arm"
            },
            {
              "system": "http://loinc.org",
              "code": "8480-6",
              "display": "Systolic blood pressure"
            },
            {
              "system": "urn:iso:std:iso:11073:10101",
              "code": "150021",
              "display": "MDC_PRESS_BLD_NONINV_SYS"
            }
          ],
          "extension": [
            {
              "url": "http://hl7.org/fhir/StructureDefinition/questionnaire-unit",
              "valueCoding": {
                "system": "http://unitsofmeasure.org",
                "code": "mm[Hg]",
                "display": "mmHg"
              }
            },
            {
              "url": "https://issuetracker4s.atlassian.net/wiki/spaces/FHIRReg/pages/115539981/Questionnaire+observationDefinition",
              "valueReference": {
                "reference": "#obsdef2"
              }
            }
          ]
        },
        {
          "linkId": "observation3",
          "type": "quantity",
          "code": [
            {
              "system": "urn:oid:1.2.208.176.2.1",
              "code": "MCS88020",
              "display": "Blodtryk hjemme diastolisk;Arm"
            },
            {
              "system": "http://loinc.org",
              "code": "8462-4",
              "display": "Diastolic blood pressure"
            },
            {
              "system": "urn:iso:std:iso:11073:10101",
              "code": "150022",
              "display": "MDC_PRESS_BLD_NONINV_DIA"
            }
          ],
          "extension": [
            {
              "url": "http://hl7.org/fhir/StructureDefinition/questionnaire-unit",
              "valueCoding": {
                "system": "http://unitsofmeasure.org",
                "code": "mm[Hg]",
                "display": "mmHg"
              }
            },
            {
              "url": "https://issuetracker4s.atlassian.net/wiki/spaces/FHIRReg/pages/115539981/Questionnaire+observationDefinition",
              "valueReference": {
                "reference": "#obsdef2"
              }
            }
          ]
        },
        {
          "linkId": "observation4",
          "type": "quantity",
          "code": [
            {
              "system": "urn:oid:1.2.208.176.2.1",
              "code": "NPU21692",
              "display": "Puls;Hjerte"
            },
            {
              "system": "http://loinc.org",
              "code": "8867-4",
              "display": "Heart rate"
            },
            {
              "system": "urn:iso:std:iso:11073:10101",
              "code": "149546",
              "display": "MDC_PULS_RATE_NON_INV"
            }
          ],
          "extension": [
            {
              "url": "https://issuetracker4s.atlassian.net/wiki/spaces/FHIRReg/pages/115539981/Questionnaire+observationDefinition",
              "valueReference": {
                "reference": "#obsdef3"
              }
            }
          ]
        }
      ]
    },
    {
      "linkId": "group3",
      "modifierExtension": [
        {
          "url": "https://issuetracker4s.atlassian.net/wiki/spaces/FHIRReg/pages/114720801/Questionnaire+mandatoryMeasurement",
          "valueReference": {
            "reference": "#devdef3"
          }
        }
      ],
      "code": [
        {
          "system": "urn:oid:1.2.208.180.42.2.1",
          "code": "CTG",
          "display": "CTG optagelse"
        }
      ],
      "text": "CTG optagelse",
      "type": "group",
      "item": [
        {
          "linkId": "observation5",
          "type": "reference",
          "code": [
            {
              "system": "urn:iso:std:iso:11073:10101",
              "code": "8450059",
              "display": "MDC_PLACEHOLDER_RECORDING_PANEL_SELF_PERFORMED_CTG"
            }
          ],
          "extension": [
            {
              "url": "https://issuetracker4s.atlassian.net/wiki/spaces/FHIRReg/pages/115539981/Questionnaire+observationDefinition",
              "valueReference": {
                "reference": "#obsdef4"
              }
            }
          ]
        }
      ]
    },
    {
      "linkId": "group4",
      "code": [
        {
          "system": "urn:oid:1.2.208.180.42.2.1",
          "code": "BP",
          "display": "Dit blodtryk"
        }
      ],
      "text": "Dit blodtryk",
      "type": "group",
      "item": [
        {
          "linkId": "observation6",
          "text": "Indtast det systoliske blodtryk",
          "type": "quantity",
          "code": [
            {
              "system": "urn:oid:1.2.208.176.2.1",
              "code": "MCS88019",
              "display": "Blodtryk hjemme systolisk;Arm"
            },
            {
              "system": "http://loinc.org",
              "code": "8480-6",
              "display": "Systolic blood pressure"
            },
            {
              "system": "urn:iso:std:iso:11073:10101",
              "code": "150021",
              "display": "MDC_PRESS_BLD_NONINV_SYS"
            }
          ],
          "extension": [
            {
              "url": "http://hl7.org/fhir/StructureDefinition/questionnaire-unit",
              "valueCoding": {
                "system": "http://unitsofmeasure.org",
                "code": "mm[Hg]",
                "display": "mmHg"
              }
            },
            {
              "url": "https://issuetracker4s.atlassian.net/wiki/spaces/FHIRReg/pages/115539981/Questionnaire+observationDefinition",
              "valueReference": {
                "reference": "#obsdef5"
              }
            }
          ]
        },
        {
          "linkId": "observation7",
          "text": "Indtast det diastoliske blodtryk",
          "type": "quantity",
          "code": [
            {
              "system": "urn:oid:1.2.208.176.2.1",
              "code": "MCS88020",
              "display": "Blodtryk hjemme diastolisk;Arm"
            },
            {
              "system": "http://loinc.org",
              "code": "8462-4",
              "display": "Diastolic blood pressure"
            },
            {
              "system": "urn:iso:std:iso:11073:10101",
              "code": "150022",
              "display": "MDC_PRESS_BLD_NONINV_DIA"
            }
          ],
          "extension": [
            {
              "url": "http://hl7.org/fhir/StructureDefinition/questionnaire-unit",
              "valueCoding": {
                "system": "http://unitsofmeasure.org",
                "code": "mm[Hg]",
                "display": "mmHg"
              }
            },
            {
              "url": "https://issuetracker4s.atlassian.net/wiki/spaces/FHIRReg/pages/115539981/Questionnaire+observationDefinition",
              "valueReference": {
                "reference": "#obsdef5"
              }
            }
          ]
        },
        {
          "linkId": "observation8",
          "text": "Indtast din puls",
          "type": "quantity",
          "code": [
            {
              "system": "urn:oid:1.2.208.176.2.1",
              "code": "NPU21692",
              "display": "Puls;Hjerte"
            },
            {
              "system": "http://loinc.org",
              "code": "8867-4",
              "display": "Heart rate"
            },
            {
              "system": "urn:iso:std:iso:11073:10101",
              "code": "149546",
              "display": "MDC_PULS_RATE_NON_INV"
            }
          ],
          "extension": [
            {
              "url": "https://issuetracker4s.atlassian.net/wiki/spaces/FHIRReg/pages/115539981/Questionnaire+observationDefinition",
              "valueReference": {
                "reference": "#obsdef6"
              }
            }
          ]
        }
      ]
    }
  ]
}
