{
  "resourceType": "Questionnaire",
  "url": "canonical://uuid/Questionnaire/f1b5004f-16a1-4c8b-b7c0-6134038df324",
  "identifier": [
    {
      "system": "urn:ietf:rfc:3986",
      "value": "f1b5004f-16a1-4c8b-b7c0-6134038df324"
    }
  ],
  "version": "1",
  "language": "da-DK",
  "title": "Hjælpetekst eksempel",
  "status": "active",
  "date": "2020-03-19T09:53:03+01:00",
  "extension": [
    {
      "url": "https://issuetracker4s.atlassian.net/wiki/spaces/FHIRReg/pages/100565032/Questionnaire+managingOrganization+extension",
      "valueReference": {
        "identifier": {
          "system": "1.2.208.176.1.1",
          "value": "238881000016000"
        },
        "type": "Organization"
      }
    }
  ],
  "subjectType": [
    "Patient"
  ],
  "item": [
    {
      "extension": [
        {
          "url": "http://hl7.org/fhir/StructureDefinition/questionnaire-unit",
          "valueCoding": {
            "system": "http://unitsofmeasure.org",
            "code": "Cel",
            "display": "Cel"
          }
        },
        {
          "url": "https://issuetracker4s.atlassian.net/wiki/spaces/FHIRReg/pages/312541185/QuestionnaireItem+help+extension",
          "valueAttachment": {
            "contentType": "application/pdf",
            "language": "da",
            "data":"JVBERi ... U9GCg=="
          }
        }
      ],
      "linkId": "temperatureMeasurement",
      "text": "Indtast svaret på din temperaturmåling",
      "type": "quantity"
    }
  ]
}
